3859,Bairnsdale (north Gippsland),"Newry, Tinamba"
3860,Bairnsdale (north Gippsland),"Boisdale, Briagolong, Maffra, Valencia Creek"
3862,Bairnsdale (north Gippsland),"Dargo, Meerlieu, Stratford"
3864,Bairnsdale (north Gippsland),Fernbank
3865,Bairnsdale (north Gippsland),Lindenow
3875,Bairnsdale (north Gippsland),"Bairnsdale, Bengworden, Calulu, Hillside, Lindenow South, Lucknow, Mount Taylor, Newlands Arm, Sarsfield, Walpa, Wy Yung"
3878,Bairnsdale (north Gippsland),Eagle Point
3880,Bairnsdale (north Gippsland),"Paynesville, Raymond Island"
3882,Bairnsdale (north Gippsland),Nicholson
3885,Bairnsdale (north Gippsland),"Bruthen, Buchan, Butchers Ridge, Gelantipy, Mossiface, Tambo Upper, W Tree, Wiseleigh, Wulgulmerang"
3886,Bairnsdale (north Gippsland),Newmerella
3887,Bairnsdale (north Gippsland),"Lake Tyers, Nowa Nowa, Wairewa"
3888,Bairnsdale (north Gippsland),"Bendoc, Bonang, Marlo, Orbost, Tubbut"
3889,Bairnsdale (north Gippsland),"Bemm River, Cabbage Tree Creek, Club Terrace, Combienbar"
3890,Bairnsdale (north Gippsland),"Cann River, Noorinbee"
3891,Bairnsdale (north Gippsland),"Genoa, Gipsy Point"
3892,Bairnsdale (north Gippsland),Mallacoota
3893,Bairnsdale (north Gippsland),Tambo Crossing
3895,Bairnsdale (north Gippsland),Ensay
3896,Bairnsdale (north Gippsland),Swifts Creek
3898,Bairnsdale (north Gippsland),"Dinner Plain, Omeo"
3900,Bairnsdale (north Gippsland),Benambra
3902,Bairnsdale (north Gippsland),Johnsonville
3903,Bairnsdale (north Gippsland),Swan Reach
3904,Bairnsdale (north Gippsland),Metung
3909,Bairnsdale (north Gippsland),"Kalimna, Lake Tyers Beach, Lakes Entrance"
3341,Ballarat (west),"Greendale, Myrniong"
3342,Ballarat (west),"Ballan, Beremboke, Blakeville, Mount Wallace"
3345,Ballarat (west),Gordon
3350,Ballarat (west),"Alfredton, Ballarat, Ballarat North, Ballarat West, Black Hill, Brown Hill, Canadian, Eureka, Golden Point, Lake Wendouree, Mount Clear, Mount Helen, Mount Pleasant, Nerrina, Redan, Sovereign Hill"
3351,Ballarat (west),"Berringa, Cape Clear, Carngham, Chepstowe, Haddon, Hillcrest, Illabarook, Lake Bolac, Mininera, Nerrin Nerrin, Rokewood Junction, Ross Creek, Scarsdale, Smythes Creek, Smythesdale, Snake Valley, Streatham, Westmere"
3352,Ballarat (west),"Addington, Barkstead, Blowhard, Bolwarrah, Bullarook, Bungaree, Burrumbeet, Cambrian Hill, Cardigan, Clarendon, Clarkes Hill, Corindhap, Dean, Dunnstown, Durham Lead, Enfield, Invermay, Lal Lal, Learmonth, Leigh Creek, Lexton, Magpie, Millbrook, Miners Rest, Mitchell Park, Mollongghip, Mount Egerton, Mount Rowan, Napoleons, Navigators, Pootilla, Scotsburn, Springbank, Wallace, Warrenheip, Waubra, Weatherboard, Werneth, Windermere, Yendon"
3353,Ballarat (west),Ballarat
3354,Ballarat (west),"Bakery Hill, Ballarat Mc"
3355,Ballarat (west),"Mitchell Park, Wendouree, Wendouree Village"
3356,Ballarat (west),"Delacombe, Sebastopol"
3357,Ballarat (west),Buninyong
3360,Ballarat (west),Linton
3361,Ballarat (west),"Carranballac, Skipton"
3363,Ballarat (west),Creswick
3364,Ballarat (west),"Allendale, Ascot, Blampied, Broomfield, Campbelltown, Coghills Creek, Kingston, Newlyn, Rocklyn, Smeaton, Ullina"
3370,Ballarat (west),Clunes
3371,Ballarat (west),"Evansford, Stony Creek, Talbot"
3373,Ballarat (west),"Beaufort, Trawalla"
3375,Ballarat (west),"Bayindeen, Buangor"
3378,Ballarat (west),Tatyoon
3430,Ballarat (west),Clarkefield
3431,Ballarat (west),Riddells Creek
3437,Ballarat (west),"Bullengarook, Gisborne"
3438,Ballarat (west),New Gisborne
3440,Ballarat (west),Macedon
3441,Ballarat (west),Mount Macedon
3442,Ballarat (west),"Ashbourne, Carlsruhe, Hesket, Newham, Rochford, Woodend"
3446,Ballarat (west),"Drummond North, Malmsbury"
3447,Ballarat (west),Taradale
3458,Ballarat (west),"Blackwood, Fern Hill, Lerderderg, Newbury, Trentham"
3460,Ballarat (west),Daylesford
3461,Ballarat (west),"Bullarto, Drummond, Franklinford, Glenlyon, Hepburn Springs, Korweinguboora, Lyonville, Musk, Yandoit"
3467,Ballarat (west),Avoca
3468,Ballarat (west),Amphitheatre
3469,Ballarat (west),Elmhurst
3393,Bendigo (north),Warracknabeal
3395,Bendigo (north),Beulah
3396,Bendigo (north),Hopetoun
3444,Bendigo (north),"Redesdale, Tylden, Kyneton, Mia Mia"
3448,Bendigo (north),"Elphinstone, Metcalfe, Sutton Grange"
3450,Bendigo (north),Castlemaine
3451,Bendigo (north),"Barkers Creek, Campbells Creek, Chewton, Fryerstown, Golden Point, Guildford, Muckleford"
3453,Bendigo (north),"Harcourt, Ravenswood"
3462,Bendigo (north),"Muckleford South, Newstead"
3463,Bendigo (north),"Baringhup, Laanecoorie, Maldon, Shelbourne, Woodstock West"
3464,Bendigo (north),Carisbrook
3465,Bendigo (north),"Alma, Craigie, Daisy Hill, Golden Point, Majorca, Maryborough, Natte Yallock, Rathscar, Simson, Wareek"
3472,Bendigo (north),"Bet Bet, Betley, Dunolly, Eddington, Goldsborough, Inkerman, Moliagul"
3475,Bendigo (north),"Bealiba, Emu, Logan"
3478,Bendigo (north),"Moonambel, Redbank, St Arnaud, Stuart Mill"
3480,Bendigo (north),"Areegra, Corack, Donald, Litchfield"
3482,Bendigo (north),Watchem
3483,Bendigo (north),Birchip
3485,Bendigo (north),"Watchupga, Woomelang"
3487,Bendigo (north),Lascelles
3488,Bendigo (north),Speed
3489,Bendigo (north),Tempy
3515,Bendigo (north),Marong
3516,Bendigo (north),"Bridgewater On Loddon, Derby, Leichardt"
3517,Bendigo (north),"Inglewood, Jarklin, Salisbury West, Serpentine"
3518,Bendigo (north),"Berrimal, Borung, Fernihurst, Mysia, Wedderburn"
3520,Bendigo (north),Korong Vale
3525,Bendigo (north),"Charlton, Wychitella"
3527,Bendigo (north),Wycheproof
3529,Bendigo (north),Nullawil
3537,Bendigo (north),"Boort, Gredgwin"
3540,Bendigo (north),"Cannie, Quambatook"
3550,Bendigo (north),"Bendigo, Kennington, Long Gully, North Bendigo, Quarry Hill, Sandhurst East, Spring Gully, Strathdale, Tysons Reef, White Hills"
3551,Bendigo (north),"Arnold, Axedale, Eppalock, Epsom, Huntly, Junortoun, Llanelly, Lockwood South, Longlea, Maiden Gully, Mandurang, Newbridge, Strathfieldsaye, Tarnagulla, Toolleen"
3552,Bendigo (north),Bendigo
3554,Bendigo (north),Bendigo Dc
3555,Bendigo (north),"Golden Square, Kangaroo Flat"
3556,Bendigo (north),"California Gully, Campbells Forest, Comet Hill, Eaglehawk, Myers Flat, Sebastian"
3557,Bendigo (north),"Barnadown, Fosterville, Goornong"
3558,Bendigo (north),"Elmore, Hunter"
3559,Bendigo (north),"Colbinabbin, Corop"
3561,Bendigo (north),"Bamawm, Rochester, Nanneella"
3562,Bendigo (north),Torrumbarry
3563,Bendigo (north),Lockington
3564,Bendigo (north),"Echuca, Kanyapella, Patho, Simmie"
3565,Bendigo (north),Kotta
3566,Bendigo (north),Gunbower
3567,Bendigo (north),"Leitchville, Mincha West"
3568,Bendigo (north),Cohuna
3570,Bendigo (north),Raywood
3571,Bendigo (north),"Dingee, Tandarra"
3572,Bendigo (north),"Milloo, Piavella, Prairie, Tennyson"
3573,Bendigo (north),"Calivil, Mitiamo"
3575,Bendigo (north),"Mincha, Pyramid Hill, Yarrawalla"
3576,Bendigo (north),Durham Ox
3579,Bendigo (north),"Kerang, Macorna, Murrabit"
3580,Bendigo (north),Koondrook
3581,Bendigo (north),Lake Charm
3583,Bendigo (north),Tresco
3211,Geelong (south West),Little River
3212,Geelong (south West),Lara
3213,Geelong (south West),"Anakie, Batesford, Lovely Banks, Moorabool"
3214,Geelong (south West),"Corio, Norlane, North Shore"
3215,Geelong (south West),"Bell Park, Bell Post Hill, Hamlyn Heights, North Geelong"
3216,Geelong (south West),"Belmont, Freshwater Creek, Grovedale, Highton, Marshall, Mount Duneed, Wandana Heights, Waurn Ponds"
3217,Geelong (south West),Deakin University
3218,Geelong (south West),"Geelong West, Herne Hill, Manifold Heights"
3219,Geelong (south West),"Breakwater, East Geelong, Newcomb, St Albans Park, Whittington"
3220,Geelong (south West),"Geelong, Newtown"
3221,Geelong (south West),"Barrabool, Bellarine, Ceres, Fyansford, Gnarwarre, Moolap, Murgheboluc, Staughton Vale, Stonehaven, Wallington"
3222,Geelong (south West),"Clifton Springs, Curlewis, Drysdale, Mannerim, Marcus Hill"
3223,Geelong (south West),"Indented Head, Portarlington, St Leonards"
3224,Geelong (south West),Leopold
3225,Geelong (south West),"Point Lonsdale, Queenscliff"
3226,Geelong (south West),Ocean Grove
3227,Geelong (south West),"Barwon Heads, Breamlea, Connewarre"
3228,Geelong (south West),"Bellbrae, Jan Juc, Torquay"
3230,Geelong (south West),Anglesea
3231,Geelong (south West),"Aireys Inlet, Eastern View, Fairhaven, Moggs Creek"
3232,Geelong (south West),Lorne
3233,Geelong (south West),"Apollo Bay, Skenes Creek"
3234,Geelong (south West),"Grey River, Kennett River, Separation Creek, Sugarloaf, Wongarra, Wye River"
3235,Geelong (south West),Deans Marsh
3236,Geelong (south West),Forrest
3237,Geelong (south West),"Beech Forest, Gellibrand Lower"
3238,Geelong (south West),"Hordern Vale, Johanna"
3240,Geelong (south West),"Buckley, Modewarre, Moriac, Mount Moriac"
3241,Geelong (south West),"Bambra, Winchelsea, Wurdiboluc"
3242,Geelong (south West),Birregurra
3243,Geelong (south West),"Barwon Downs, Gerangamete, Murroon, Warncoort"
3249,Geelong (south West),"Alvie, Barongarook, Barramunga, Coragulac, Corunnun, Dreeite, Irrewarra, Kawarren, Larpent, Nalangil, Ondit, Pirron Yallock, Swan Marsh, Warrion, Wool Wool, Yeo, Yeodene"
3250,Geelong (south West),"Colac, Elliminyt"
3251,Geelong (south West),"Beeac, Cundare North, Weering"
3254,Geelong (south West),Cororooke
3321,Geelong (south West),Inverleigh
3322,Geelong (south West),Cressy
3323,Geelong (south West),"Berrybank, Duverney"
3328,Geelong (south West),Teesdale
3329,Geelong (south West),"Barunah Park, Shelford"
3330,Geelong (south West),Rokewood
3331,Geelong (south West),"Bannockburn, Gheringhap, Maude, Russells Bridge, She Oaks, Steiglitz, Sutherlands Creek"
3332,Geelong (south West),Lethbridge
3333,Geelong (south West),Meredith
3334,Geelong (south West),"Elaine, Morrisons"
3338,Geelong (south West),"Brookfield, Exford, Melton South"
3340,Geelong (south West),"Bacchus Marsh, Balliang, Coimadai, Glenmore, Parwan, Rowsley"
3294,Horsham (west),"Dunkeld, Moutajup, Victoria Valley"
3317,Horsham (west),Harrow
3318,Horsham (west),"Connewirricoo, Edenhope, Langkoop"
3319,Horsham (west),"Apsley, Benayeo"
3377,Horsham (west),"Ararat, Crowlands, Great Western, Maroona, Mount Lonarch, Moyston, Warrak"
3380,Horsham (west),Stawell
3381,Horsham (west),"Barkly, Campbells Bridge, Halls Gap, Lubeck, Pomonal"
3384,Horsham (west),"Landsborough, Navarre"
3385,Horsham (west),"Dadswells Bridge, Glenorchy"
3387,Horsham (west),Marnoo
3388,Horsham (west),"Banyena, Rupanyup"
3390,Horsham (west),Murtoa
3391,Horsham (west),Brim
3392,Horsham (west),"Minyip, Sheep Hills"
3400,Horsham (west),Horsham
3401,Horsham (west),"Dooen, Douglas, Gymbowen, Karnak, Mitre, Noradjuha, Quantong, Rocklands, Telangatuk East, Toolondo, Wallup, Wombelano"
3402,Horsham (west),Horsham
3407,Horsham (west),"Balmoral, Gatum, Vasey"
3409,Horsham (west),Natimuk
3412,Horsham (west),Goroke
3413,Horsham (west),"Minimay, Neuarpurr, Ozenkadnook, Peronne"
3414,Horsham (west),"Antwerp, Dimboola"
3415,Horsham (west),"Lawloit, Miram"
3418,Horsham (west),"Gerang Gerung, Kiata, Nhill, Yanac"
3419,Horsham (west),Kaniva
3420,Horsham (west),"Lillimur, Serviceton"
3423,Horsham (west),Jeparit
3424,Horsham (west),"Rainbow, Yaapeet"
3000,Melbourne,Melbourne
3001,Melbourne,Melbourne
3002,Melbourne,East Melbourne
3003,Melbourne,West Melbourne
3004,Melbourne,St Kilda Road Melbourne
3005,Melbourne,World Trade Centre
3006,Melbourne,Southbank
3008,Melbourne,Docklands
3010,Melbourne,University Of Melbourne
3011,Melbourne,"Footscray, Seddon, Seddon West"
3012,Melbourne,"Brooklyn, Kingsville, Maidstone, Tottenham, West Footscray"
3013,Melbourne,"Yarraville, Yarraville West"
3015,Melbourne,"Newport, South Kingsville, Spotswood"
3016,Melbourne,Williamstown
3018,Melbourne,"Altona, Seaholme"
3019,Melbourne,"Braybrook, Robinson"
3020,Melbourne,"Albion, Sunshine"
3021,Melbourne,"Albanvale, Kealba, Kings Park, St Albans"
3022,Melbourne,"Ardeer, Deer Park East"
3023,Melbourne,"Burnside, Cairnlea, Caroline Springs, Deer Park"
3024,Melbourne,"Mount Cottrell, Wyndham Vale"
3025,Melbourne,Altona North
3026,Melbourne,Laverton North
3027,Melbourne,Williams Landing
3028,Melbourne,"Altona Meadows, Laverton, Seabrook"
3029,Melbourne,"Hoppers Crossing, Tarneit, Truganina"
3030,Melbourne,"Derrimut, Point Cook, Werribee"
3031,Melbourne,"Flemington, Kensington"
3032,Melbourne,"Ascot Vale, Highpoint City, Maribyrnong, Travancore"
3033,Melbourne,East Keilor
3034,Melbourne,Avondale Heights
3036,Melbourne,"Keilor, Keilor North"
3037,Melbourne,"Delahey, Hillside, Sydenham"
3038,Melbourne,"Keilor Downs, Taylors Lakes"
3039,Melbourne,Moonee Ponds
3040,Melbourne,"Aberfeldie, Essendon, Essendon West"
3041,Melbourne,"Essendon North, Strathmore, Strathmore Heights"
3042,Melbourne,"Airport West, Keilor Park, Niddrie"
3043,Melbourne,"Gladstone Park, Gowanbrae, Tullamarine"
3044,Melbourne,"Pascoe Vale, Pascoe Vale South"
3045,Melbourne,Melbourne Airport
3046,Melbourne,"Glenroy, Hadfield, Oak Park"
3047,Melbourne,"Broadmeadows, Dallas, Jacana"
3048,Melbourne,"Coolaroo, Meadow Heights"
3049,Melbourne,"Attwood, Westmeadows"
3050,Melbourne,Royal Melbourne Hospital
3051,Melbourne,"Hotham Hill, North Melbourne"
3052,Melbourne,"Melbourne University, Parkville"
3053,Melbourne,"Carlton, Carlton South"
3054,Melbourne,"Carlton North, Princes Hill"
3055,Melbourne,Brunswick West
3056,Melbourne,Brunswick
3057,Melbourne,Brunswick East
3058,Melbourne,"Coburg, Coburg North, Merlynston, Moreland"
3059,Melbourne,Greenvale
3060,Melbourne,Fawkner
3061,Melbourne,Campbellfield
3062,Melbourne,Somerton
3063,Melbourne,"Oaklands Junction, Yuroke"
3064,Melbourne,"Craigieburn, Donnybrook, Kalkallo, Mickleham, Roxburgh Park"
3065,Melbourne,Fitzroy
3066,Melbourne,Collingwood
3067,Melbourne,Abbotsford
3068,Melbourne,"Clifton Hill, Fitzroy North"
3070,Melbourne,Northcote
3071,Melbourne,Thornbury
3072,Melbourne,"Northland Centre, Preston, Preston South, Regent West"
3073,Melbourne,"Reservoir, Keon Park"
3074,Melbourne,Thomastown
3075,Melbourne,Lalor
3076,Melbourne,"Epping, Epping Dc"
3078,Melbourne,"Alphington, Fairfield"
3079,Melbourne,"Ivanhoe, Ivanhoe East"
3081,Melbourne,"Heidelberg Heights, Heidelberg Rgh, Heidelberg West"
3082,Melbourne,Mill Park
3083,Melbourne,"Bundoora, Kingsbury"
3084,Melbourne,"Banyule, Eaglemont, Heidelberg, Rosanna, Viewbank"
3085,Melbourne,"Macleod, Yallambie"
3087,Melbourne,Watsonia
3088,Melbourne,"Briar Hill, Greensborough, Saint Helena"
3089,Melbourne,Diamond Creek
3090,Melbourne,Plenty
3091,Melbourne,Yarrambat
3093,Melbourne,Lower Plenty
3094,Melbourne,Montmorency
3095,Melbourne,"Eltham, Eltham North, Research"
3096,Melbourne,Wattle Glen
3097,Melbourne,"Bend Of Islands, Kangaroo Ground, Watsons Creek"
3099,Melbourne,"Arthurs Creek, Cottles Bridge, Hurstbridge, Nutfield, Strathewen"
3101,Melbourne,Kew
3102,Melbourne,Kew East
3103,Melbourne,Balwyn
3104,Melbourne,Balwyn North
3105,Melbourne,Bulleen
3106,Melbourne,Templestowe
3107,Melbourne,Templestowe Lower
3108,Melbourne,Doncaster
3109,Melbourne,"Doncaster East, Doncaster Heights, Tunstall Square Po"
3110,Melbourne,Nunawading Bc
3111,Melbourne,Donvale
3113,Melbourne,"North Warrandyte, Warrandyte"
3114,Melbourne,Park Orchards
3115,Melbourne,Wonga Park
3116,Melbourne,Chirnside Park
3121,Melbourne,"Burnley, Cremorne, Richmond"
3122,Melbourne,Hawthorn
3123,Melbourne,Hawthorn East
3124,Melbourne,"Camberwell, Camberwell North, Camberwell South, Camberwell West, Middle Camberwell"
3125,Melbourne,"Bennettswood, Burwood"
3126,Melbourne,"Camberwell East, Canterbury"
3127,Melbourne,"Mont Albert, Surrey Hills"
3128,Melbourne,"Box Hill, Box Hill South, Houston, Wattle Park"
3129,Melbourne,"Box Hill North, Kerrimuir, Mont Albert North"
3130,Melbourne,"Blackburn, Blackburn North, Blackburn South, Laburnum"
3131,Melbourne,"Brentford Square, Forest Hill, Nunawading"
3132,Melbourne,"Mitcham, Rangeview"
3133,Melbourne,"Vermont, Vermont South"
3134,Melbourne,"Ringwood, Ringwood North, Warrandyte South, Warranwood"
3135,Melbourne,"Bedford Road, Heathmont, Ringwood East"
3136,Melbourne,"Croydon, Croydon Hills, Croydon North, Croydon South"
3137,Melbourne,"Kilsyth, Kilsyth South"
3138,Melbourne,Mooroolbark
3139,Melbourne,"Hoddles Creek, Launching Place, Seville, Wandin North, Woori Yallock, Yellingbo"
3140,Melbourne,Lilydale
3141,Melbourne,South Yarra
3142,Melbourne,"Hawksburn, Toorak"
3143,Melbourne,"Armadale, Armadale North"
3144,Melbourne,"Kooyong, Malvern"
3145,Melbourne,"Caulfield East, Central Park, Darling, Malvern East"
3146,Melbourne,Glen Iris
3147,Melbourne,"Ashburton, Ashwood"
3148,Melbourne,"Chadstone, Holmesglen"
3149,Melbourne,"Mount Waverley, Syndal"
3150,Melbourne,"Glen Waverley, Wheelers Hill"
3151,Melbourne,"Burwood East, Burwood Heights"
3152,Melbourne,"Knox City Centre, Studfield, Wantirna, Wantirna South"
3153,Melbourne,"Bayswater, Bayswater North"
3154,Melbourne,The Basin
3155,Melbourne,Boronia
3156,Melbourne,"Ferntree Gully, Lysterfield, Lysterfield South, Mountain Gate, Upper Ferntree Gully"
3158,Melbourne,Upwey
3159,Melbourne,"Menzies Creek, Selby"
3160,Melbourne,"Belgrave, Tecoma"
3161,Melbourne,"Caulfield Junction, Caulfield North"
3162,Melbourne,"Caulfield, Caulfield South, Hopetoun Gardens"
3163,Melbourne,"Carnegie, Glen Huntly, Murrumbeena"
3164,Melbourne,Dandenong South
3165,Melbourne,"Bentleigh East, Coatesville"
3166,Melbourne,"Hughesdale, Huntingdale, Oakleigh, Oakleigh East"
3167,Melbourne,Oakleigh South
3168,Melbourne,"Clayton, Notting Hill"
3169,Melbourne,"Clarinda, Clayton South"
3170,Melbourne,Mulgrave
3171,Melbourne,"Sandown Village, Springvale"
3172,Melbourne,"Dingley Village, Springvale South"
3173,Melbourne,Keysborough
3174,Melbourne,"Noble Park, Noble Park North"
3175,Melbourne,"Bangholme, Dandenong, Dandenong North, Dandenong South"
3176,Melbourne,Scoresby Bc
3177,Melbourne,"Doveton, Eumemmerring"
3178,Melbourne,Rowville
3179,Melbourne,Scoresby
3180,Melbourne,Knoxfield
3181,Melbourne,"Prahran, Windsor"
3182,Melbourne,"St Kilda, St Kilda South, St Kilda West"
3183,Melbourne,"Balaclava, St Kilda East"
3184,Melbourne,"Brighton Road, Elwood"
3185,Melbourne,"Elsternwick, Gardenvale, Ripponlea"
3186,Melbourne,"Brighton, Dendy"
3187,Melbourne,"Brighton East, North Road"
3188,Melbourne,"Hampton, Hampton East, Hampton North"
3189,Melbourne,"Moorabbin, Moorabbin East, Wishart"
3190,Melbourne,Highett
3191,Melbourne,Sandringham
3192,Melbourne,"Cheltenham, Cheltenham East, Southland Centre"
3193,Melbourne,"Beaumaris, Black Rock, Cromer"
3194,Melbourne,"Mentone, Moorabbin Airport"
3195,Melbourne,"Aspendale, Aspendale Gardens, Braeside, Mordialloc, Parkdale, Waterways"
3196,Melbourne,"Bonbeach, Chelsea, Chelsea Heights, Edithvale"
3197,Melbourne,"Carrum, Patterson Lakes"
3198,Melbourne,"Belvedere Park, Seaford"
3199,Melbourne,"Frankston, Frankston South, Karingal"
3200,Melbourne,"Frankston North, Pines Forest"
3201,Melbourne,Carrum Downs
3202,Melbourne,Heatherton
3204,Melbourne,"Bentleigh, Mckinnon, Ormond"
3205,Melbourne,"South Melbourne, South Melbourne Dc"
3206,Melbourne,"Albert Park, Middle Park"
3207,Melbourne,"Garden City, Port Melbourne"
3335,Melbourne,Rockbank
3337,Melbourne,"Kurunjang, Melton, Toolern Vale"
3427,Melbourne,Diggers Rest
3428,Melbourne,Bulla
3429,Melbourne,Sunbury
3752,Melbourne,South Morang
3765,Melbourne,Montrose
3766,Melbourne,Kalorama
3767,Melbourne,Mount Dandenong
3770,Melbourne,"Coldstream, Gruyere"
3775,Melbourne,"Christmas Hills, Dixons Creek, Steels Creek, Yarra Glen"
3777,Melbourne,"Healesville, Toolangi"
3781,Melbourne,Cockatoo
3782,Melbourne,"Avonsleigh, Clematis, Emerald, Macclesfield"
3786,Melbourne,Ferny Creek
3787,Melbourne,"Sassafras, Sassafras Gully"
3788,Melbourne,Olinda
3789,Melbourne,Sherbrooke
3791,Melbourne,Kallista
3792,Melbourne,The Patch
3793,Melbourne,Monbulk
3795,Melbourne,Silvan
3796,Melbourne,Mount Evelyn
3802,Melbourne,Endeavour Hills
3803,Melbourne,Hallam
3804,Melbourne,"Narre Warren East, Narre Warren North"
3805,Melbourne,"Fountain Gate, Narre Warren, Narre Warren South"
3806,Melbourne,"Berwick, Harkaway"
3807,Melbourne,"Beaconsfield, Guys Hill"
3808,Melbourne,Beaconsfield Upper
3809,Melbourne,Officer
3810,Melbourne,"Pakenham, Pakenham Upper"
3910,Melbourne,Langwarrin
3911,Melbourne,Baxter
3912,Melbourne,"Pearcedale, Somerville"
3913,Melbourne,Tyabb
3915,Melbourne,"Hastings, Tuerong"
3916,Melbourne,"Merricks, Shoreham"
3918,Melbourne,Bittern
3919,Melbourne,Crib Point
3920,Melbourne,Hmas Cerberus
3926,Melbourne,"Balnarring, Merricks Beach, Merricks North"
3927,Melbourne,Somers
3928,Melbourne,Main Ridge
3929,Melbourne,Flinders
3930,Melbourne,"Kunyung, Mount Eliza"
3931,Melbourne,Mornington
3933,Melbourne,Moorooduc
3934,Melbourne,Mount Martha
3936,Melbourne,"Arthurs Seat, Dromana, Safety Beach"
3937,Melbourne,"Red Hill, Red Hill South"
3938,Melbourne,Mccrae
3939,Melbourne,"Fingal, Rosebud"
3940,Melbourne,Rosebud West
3941,Melbourne,"Rye, St Andrews Beach, Tootgarook"
3942,Melbourne,Blairgowrie
3943,Melbourne,Sorrento
3944,Melbourne,Portsea
3975,Melbourne,"Lynbrook, Lyndhurst"
3976,Melbourne,Hampton Park
3977,Melbourne,"Cannons Creek, Cranbourne, Cranbourne East, Cranbourne North, Cranbourne South, Cranbourne West, Devon Meadows, Five Ways, Junction Village, Skye"
8001,Melbourne,Melbourne
8002,Melbourne,East Melbourne
8003,Melbourne,Collins Street East
8004,Melbourne,St Kilda Road
8005,Melbourne,World Trade Centre
8006,Melbourne,Melbourne
8007,Melbourne,Collins Street West
8008,Melbourne,St Kilda Road Central
8009,Melbourne,Flinders Lane
8010,Melbourne,Law Courts
3285,Portland And Hamilton (south West),"Narrawong, Rosebrook, St Helens, Toolong, Tyrendarra, Yambuk"
3286,Portland And Hamilton (south West),Macarthur
3292,Portland And Hamilton (south West),Nelson
3300,Portland And Hamilton (south West),Hamilton
3301,Portland And Hamilton (south West),"Broadwater, Byaduk, Strathkellar, Tarrington"
3302,Portland And Hamilton (south West),Branxholme
3303,Portland And Hamilton (south West),Condah
3304,Portland And Hamilton (south West),"Dartmoor, Heywood, Winnap"
3305,Portland And Hamilton (south West),"Allestree, Bolwarra, Gorae, Portland"
3309,Portland And Hamilton (south West),Digby
3310,Portland And Hamilton (south West),Merino
3311,Portland And Hamilton (south West),Casterton
3312,Portland And Hamilton (south West),"Carapook, Chetwynd, Dergholm, Henty, Lake Mundi, Poolaijelo, Sandford, Strathdownie, Wando Vale"
3314,Portland And Hamilton (south West),Cavendish
3315,Portland And Hamilton (south West),"Coleraine, Melville Forest, Nareen"
3607,Seymour And Shepparton (north East),Tabilk
3608,Seymour And Shepparton (north East),"Bailieston, Goulburn Weir, Graytown, Nagambie, Wahring"
3610,Seymour And Shepparton (north East),"Dhurringile, Murchison"
3616,Seymour And Shepparton (north East),"Cooma, Gillieston, Harston, Tatura"
3617,Seymour And Shepparton (north East),Byrneside
3618,Seymour And Shepparton (north East),Merrigum
3620,Seymour And Shepparton (north East),"Kyabram, Lancaster, Wyuna"
3621,Seymour And Shepparton (north East),"Koyuga South, Tongala, Yambuna"
3622,Seymour And Shepparton (north East),"Koyuga, Strathallan"
3624,Seymour And Shepparton (north East),Girgarre
3629,Seymour And Shepparton (north East),"Ardmona, Coomboona, Mooroopna, Undera"
3630,Seymour And Shepparton (north East),"Benarch, Branditt, Caniambo, Colliver, Dunkirk, Shepparton"
3633,Seymour And Shepparton (north East),Congupna
3634,Seymour And Shepparton (north East),"Bunbartha, Invergordon South, Katandra, Marungi, Tallygaroopna"
3635,Seymour And Shepparton (north East),Wunghnu
3636,Seymour And Shepparton (north East),"Invergordon, Numurkah"
3637,Seymour And Shepparton (north East),Waaia
3639,Seymour And Shepparton (north East),"Barmah, Picola"
3640,Seymour And Shepparton (north East),Katunga
3641,Seymour And Shepparton (north East),Strathmerton
3643,Seymour And Shepparton (north East),Cobram
3644,Seymour And Shepparton (north East),"Cobram, Yarroweyah"
3646,Seymour And Shepparton (north East),"Dookie, Yabba North, Youanmite"
3647,Seymour And Shepparton (north East),Dookie College
3649,Seymour And Shepparton (north East),Katamatite
3660,Seymour And Shepparton (north East),"Kerrisdale, Seymour, Trawool"
3661,Seymour And Shepparton (north East),Seymour
3663,Seymour And Shepparton (north East),Mangalore
3666,Seymour And Shepparton (north East),"Balmattum, Creighton, Euroa, Gooram, Kithbrook, Ruffy, Strathbogie"
3713,Seymour And Shepparton (north East),Eildon
3714,Seymour And Shepparton (north East),"Acheron, Alexandra, Cathkin, Koriella, Taggerty"
3717,Seymour And Shepparton (north East),"Flowerdale, Glenburn, Homewood, Murrindindi, Yea"
3724,Seymour And Shepparton (north East),Mansfield
3778,Seymour And Shepparton (north East),Narbethong
3779,Seymour And Shepparton (north East),Marysville
3799,Seymour And Shepparton (north East),"Mcmahons Creek, Millgrove, Warburton, Wesburn"
3783,Traralagon (south Gippsland),Gembrook
3797,Traralagon (south Gippsland),"Gilderoy, Powelltown, Three Bridges, Yarra Junction"
3800,Traralagon (south Gippsland),Monash University
3812,Traralagon (south Gippsland),"Maryknoll, Nar Nar Goon"
3813,Traralagon (south Gippsland),Tynong
3814,Traralagon (south Gippsland),"Cora Lynn, Garfield, Vervale"
3815,Traralagon (south Gippsland),"Bunyip, Iona, Tonimbuk"
3816,Traralagon (south Gippsland),"Labertouche, Longwarry, Modella"
3818,Traralagon (south Gippsland),"Athlone, Drouin, Ripplebrook"
3820,Traralagon (south Gippsland),Warragul
3821,Traralagon (south Gippsland),"Buln Buln, Neerim Junction, Neerim North, Nilma, Rokeby"
3822,Traralagon (south Gippsland),Darnum
3823,Traralagon (south Gippsland),Yarragon
3824,Traralagon (south Gippsland),"Childers, Thorpdale South, Trafalgar"
3825,Traralagon (south Gippsland),"Aberfeldy, Coalville, Erica, Hernes Oak, Hill End, Moe, Moondarra, Newborough, Rawson, Tanjil South, Walhalla, Willow Grove, Yallourn North"
3831,Traralagon (south Gippsland),"Neerim, Neerim South"
3832,Traralagon (south Gippsland),Neerim
3833,Traralagon (south Gippsland),Noojee
3835,Traralagon (south Gippsland),Thorpdale
3840,Traralagon (south Gippsland),"Jeeralang, Mid Valley, Morwell"
3841,Traralagon (south Gippsland),Gippsland Mc
3842,Traralagon (south Gippsland),Churchill
3844,Traralagon (south Gippsland),"Callignee, Carrajung, Flynn, Koornalla, Traralgon, Tyers, Willung South"
3847,Traralagon (south Gippsland),"Nambrok, Rosedale, Willung"
3850,Traralagon (south Gippsland),"Guthridge, Sale, Wurruk"
3851,Traralagon (south Gippsland),"Bundalaguah, Darriman, Kilmany, Loch Sport, Longford, Myrtlebank, Paradise Beach, Seaspray"
3852,Traralagon (south Gippsland),East Sale Raaf
3853,Traralagon (south Gippsland),Sale
3854,Traralagon (south Gippsland),Glengarry
3856,Traralagon (south Gippsland),Toongabbie
3857,Traralagon (south Gippsland),Cowwarr
3858,Traralagon (south Gippsland),"Glenmaggie, Heyfield, Licola, Seaton"
3869,Traralagon (south Gippsland),"Jumbuk, Yinnar"
3870,Traralagon (south Gippsland),Boolarra
3871,Traralagon (south Gippsland),"Darlimurla, Mirboo North"
3873,Traralagon (south Gippsland),Gormandale
3874,Traralagon (south Gippsland),"Carrajung South, Woodside"
3921,Traralagon (south Gippsland),Tankerton
3922,Traralagon (south Gippsland),Cowes
3923,Traralagon (south Gippsland),Rhyll
3925,Traralagon (south Gippsland),"Cape Woolamai, Newhaven, San Remo"
3945,Traralagon (south Gippsland),"Jeetho, Krowera, Loch, Woodleigh"
3946,Traralagon (south Gippsland),Bena
3950,Traralagon (south Gippsland),Korumburra
3951,Traralagon (south Gippsland),"Jumbunna, Kardella, Kongwak, Outtrim"
3953,Traralagon (south Gippsland),"Berrys Creek, Hallston, Leongatha, Nerrena"
3954,Traralagon (south Gippsland),Koonwarra
3956,Traralagon (south Gippsland),"Dumbalk, Meeniyan, Tarwin, Venus Bay, Walkerville, Walkerville South"
3957,Traralagon (south Gippsland),Stony Creek
3958,Traralagon (south Gippsland),Buffalo
3959,Traralagon (south Gippsland),"Fish Creek, Sandy Point, Waratah Bay"
3960,Traralagon (south Gippsland),"Bennison, Foster, Mount Best, Tidal River, Yanakie"
3962,Traralagon (south Gippsland),"Agnes, Toora"
3964,Traralagon (south Gippsland),Port Franklin
3965,Traralagon (south Gippsland),Port Welshpool
3966,Traralagon (south Gippsland),"Binginwarri, Welshpool"
3967,Traralagon (south Gippsland),Hedley
3971,Traralagon (south Gippsland),"Alberton, Balook, Devon North, Gelliondale, Macks Creek, Port Albert, Tarraville, Won Wron, Yarram"
3978,Traralagon (south Gippsland),"Cardinia, Clyde, Clyde North"
3979,Traralagon (south Gippsland),"Almurta, Glen Alvie, Kernot"
3980,Traralagon (south Gippsland),"Blind Bight, Tooradin, Warneet"
3981,Traralagon (south Gippsland),"Bayles, Catani, Dalmore, Heath Hill, Koo Wee Rup, Yannathan"
3984,Traralagon (south Gippsland),"Caldermeade, Corinella, Coronet Bay, Grantville, Jam Jerrup, Lang Lang, Monomeith, Tenby Point, The Gurdies"
3987,Traralagon (south Gippsland),Nyora
3988,Traralagon (south Gippsland),Poowong
3990,Traralagon (south Gippsland),Glen Forbes
3991,Traralagon (south Gippsland),Bass
3992,Traralagon (south Gippsland),Dalyston
3995,Traralagon (south Gippsland),"Archies Creek, Cape Paterson, Kilcunda, South Dudley, Wonthaggi, Woolamai"
3996,Traralagon (south Gippsland),Inverloch
3490,Vic Country (north),Ouyen
3491,Vic Country (north),Patchewollock
3494,Vic Country (north),"Carwarp, Colignan, Nangiloc"
3496,Vic Country (north),"Cardross, Cullulleraine, Meringur, Red Cliffs, Sunnycliffs, Werrimull"
3498,Vic Country (north),Irymple
3500,Vic Country (north),Mildura
3501,Vic Country (north),"Mildura Centre Plaza, Nichols Point"
3502,Vic Country (north),Mildura
3505,Vic Country (north),"Cabarita, Merbein"
3506,Vic Country (north),Cowangie
3507,Vic Country (north),Walpeup
3509,Vic Country (north),Underbool
3512,Vic Country (north),Murrayville
3530,Vic Country (north),Culgoa
3531,Vic Country (north),Berriwillock
3533,Vic Country (north),"Nandaly, Sea Lake"
3542,Vic Country (north),Lalbert
3544,Vic Country (north),"Ultima, Waitchie"
3546,Vic Country (north),"Bolton, Chinkapook, Manangatang"
3549,Vic Country (north),Robinvale
3584,Vic Country (north),Lake Boga
3585,Vic Country (north),Swan Hill
3588,Vic Country (north),Woorinen South
3589,Vic Country (north),Woorinen
3590,Vic Country (north),Beverford
3591,Vic Country (north),Vinifera
3594,Vic Country (north),Nyah
3595,Vic Country (north),Nyah West
3596,Vic Country (north),Wood Wood
3597,Vic Country (north),Piangil
3599,Vic Country (north),Boundary Bend
3432,Wangaratta (north East),Bolinda
3434,Wangaratta (north East),"Kerrie, Romsey"
3435,Wangaratta (north East),Lancefield
3521,Wangaratta (north East),Pyalong
3522,Wangaratta (north East),Tooborac
3523,Wangaratta (north East),"Costerfield, Heathcote, Knowsley"
3612,Wangaratta (north East),"Rushworth, Wanalta"
3614,Wangaratta (north East),Toolamba
3619,Wangaratta (north East),Kyabram
3623,Wangaratta (north East),Stanhope
3631,Wangaratta (north East),"Arcadia, Cosgrove, Kialla, Kialla East, Kialla West, Lemnos, Pine Lodge, Shepparton East, Tamleugh West"
3632,Wangaratta (north East),Shepparton
3638,Wangaratta (north East),"Kotupna, Nathalia"
3658,Wangaratta (north East),"Broadford, Clonbinane, Hazeldene, Reedy Creek, Strath Creek"
3659,Wangaratta (north East),Tallarook
3662,Wangaratta (north East),Puckapunyal Milpo
3664,Wangaratta (north East),Avenel
3665,Wangaratta (north East),"Locksley, Longwood"
3669,Wangaratta (north East),"Boho South, Creek Junction, Gowangardie, Koonda, Tamleugh, Violet Town"
3670,Wangaratta (north East),"Baddaginnie, Warrenbayne"
3671,Wangaratta (north East),Benalla
3672,Wangaratta (north East),Benalla
3673,Wangaratta (north East),"Benalla, Lima, Molyullah, Swanpool, Tatong, Winton"
3675,Wangaratta (north East),"Glenrowan, Greta, Hansonville"
3676,Wangaratta (north East),Wangaratta
3677,Wangaratta (north East),"Appin Park, Wangaratta, Yarrunga"
3678,Wangaratta (north East),"Boorhaman, Cheshunt, Everton, Milawa, Oxley"
3682,Wangaratta (north East),"Norong, Springhurst"
3683,Wangaratta (north East),Chiltern
3685,Wangaratta (north East),"Boorhaman North, Browns Plains, Gooramadda, Prentice North, Rutherglen"
3687,Wangaratta (north East),Wahgunyah
3688,Wangaratta (north East),Barnawartha
3689,Wangaratta (north East),Wodonga
3690,Wangaratta (north East),"Wodonga, Wodonga Plaza"
3691,Wangaratta (north East),"Allans Flat, Baranduda, Bellbridge, Berringama, Bethanga, Bonegilla, Dederang, Ebden, Glen Creek, Gundowring, Hume Weir, Kergunyah, Kiewa, Leneva, Lone Pine, Lucyvale, Mount Alfred, Staghorn Flat, Talgarno, Tangambalanga"
3694,Wangaratta (north East),Bandiana Milpo
3695,Wangaratta (north East),"Charleroi, Huon, Red Bluff, Sandy Creek"
3697,Wangaratta (north East),Tawonga
3698,Wangaratta (north East),Tawonga South
3699,Wangaratta (north East),"Bogong, Falls Creek, Mount Beauty"
3700,Wangaratta (north East),Tallangatta
3701,Wangaratta (north East),"Dartmouth, Eskdale, Granya, Mitta Mitta, Shelley"
3704,Wangaratta (north East),Koetong
3705,Wangaratta (north East),"Cudgewa, Nariel Valley"
3707,Wangaratta (north East),"Biggara, Colac Colac, Corryong, Thowgla Valley, Towong"
3708,Wangaratta (north East),Tintaldra
3709,Wangaratta (north East),"Burrowye, Guys Forest, Walwa"
3711,Wangaratta (north East),Buxton
3712,Wangaratta (north East),"Rubicon, Thornton"
3715,Wangaratta (north East),"Ancona, Merton, Woodfield"
3718,Wangaratta (north East),Molesworth
3719,Wangaratta (north East),"Gobur, Kanumbra, Yarck"
3720,Wangaratta (north East),Bonnie Doon
3722,Wangaratta (north East),"Mansfield, Mirimbah"
3723,Wangaratta (north East),"Goughs Bay, Jamieson, Matlock, Merrijig, Mount Buller, Woods Point"
3725,Wangaratta (north East),"Boxwood, Goorambat"
3726,Wangaratta (north East),"Bungeet, Devenish, Thoona"
3727,Wangaratta (north East),"Lake Rowan, St James, Yundool"
3728,Wangaratta (north East),"Tungamah, Wilby"
3730,Wangaratta (north East),"Bundalong, Telford, Yarrawonga"
3732,Wangaratta (north East),Moyhu
3733,Wangaratta (north East),"Whitfield, Whitlands"
3735,Wangaratta (north East),"Bowmans Forest, Whorouly"
3736,Wangaratta (north East),Myrtleford
3737,Wangaratta (north East),"Buffalo River, Dandongadale, Gapsted, Mudgegonga, Myrtleford, Rosewhite"
3738,Wangaratta (north East),Ovens
3739,Wangaratta (north East),Eurobin
3740,Wangaratta (north East),"Mount Buffalo, Porepunkah"
3741,Wangaratta (north East),"Bright, Freeburgh, Harrietville, Hotham Heights, Mount Hotham"
3744,Wangaratta (north East),Wandiligong
3746,Wangaratta (north East),Eldorado
3747,Wangaratta (north East),"Baarmutha, Beechworth, Murmungee, Stanley, Wooragee"
3749,Wangaratta (north East),Yackandandah
3750,Wangaratta (north East),Wollert
3751,Wangaratta (north East),Woodstock
3753,Wangaratta (north East),Beveridge
3754,Wangaratta (north East),"Doreen, Mernda"
3755,Wangaratta (north East),Yan Yean
3756,Wangaratta (north East),"Darraweit Guim, Hidden Valley, Upper Plenty, Wallan"
3757,Wangaratta (north East),"Eden Park, Humevale, Kinglake West, Pheasant Creek, Whittlesea"
3758,Wangaratta (north East),"Heathcote Junction, Wandong"
3759,Wangaratta (north East),Panton Hill
3760,Wangaratta (north East),Smiths Gully
3761,Wangaratta (north East),St Andrews
3762,Wangaratta (north East),Bylands
3763,Wangaratta (north East),Kinglake
3764,Wangaratta (north East),Kilmore
3239,Warnambool (south West),"Carlisle River, Chapple Vale, Gellibrand, Kennedys Creek"
3260,Warnambool (south West),"Bungador, Camperdown, Gnotuk, Pomborneit, Stonyford"
3264,Warnambool (south West),Terang
3265,Warnambool (south West),"Boorcan, Ellerslie, Garvoc, Kolora, Noorat, Panmure, The Sisters"
3266,Warnambool (south West),"Cobden, Glenfyne, Jancourt, Jancourt East, Simpson"
3267,Warnambool (south West),Scotts Creek
3268,Warnambool (south West),"Curdie Vale, Curdies River, Nirranda, Nullawarre, Timboon"
3269,Warnambool (south West),"Port Campbell, Princetown"
3270,Warnambool (south West),Peterborough
3271,Warnambool (south West),"Darlington, Dundonnell, Pura Pura"
3272,Warnambool (south West),"Mortlake, Woorndoo"
3273,Warnambool (south West),Hexham
3274,Warnambool (south West),Caramut
3275,Warnambool (south West),Mailer Flat
3276,Warnambool (south West),Woolsthorpe
3277,Warnambool (south West),"Allansford, Mepunga, Naringal"
3278,Warnambool (south West),Purnim
3279,Warnambool (south West),Wangoom
3280,Warnambool (south West),"Dennington, Warrnambool"
3281,Warnambool (south West),"Bushfield, Grassmere, Winslow, Woodford"
3282,Warnambool (south West),"Illowa, Koroit"
3283,Warnambool (south West),"Killarney, Kirkstall, Southern Cross, Tower Hill"
3284,Warnambool (south West),Port Fairy
3287,Warnambool (south West),"Hawkesdale, Minhamite"
3289,Warnambool (south West),Penshurst
3293,Warnambool (south West),Glenthompson
3324,Warnambool (south West),Lismore
3325,Warnambool (south West),Derrinallum
3379,Warnambool (south West),"Chatsworth, Stavely, Wickliffe"
