7000,South Tasmania,"Glebe, Hobart, Mount Stuart, North Hobart, West Hobart"
7001,South Tasmania,Hobart Airport
7002,South Tasmania,Western Shore
7004,South Tasmania,"Battery Point, South Hobart"
7005,South Tasmania,"Dynnyrne, Sandy Bay, University Of Tasmania"
7006,South Tasmania,Sandy Bay
7007,South Tasmania,"Mount Nelson, Tolmans Hill"
7008,South Tasmania,"Lenah Valley, New Town"
7009,South Tasmania,"Derwent Park, Lutana, Moonah"
7010,South Tasmania,"Dowsing Point, Glenorchy, Goodwood, Montrose, Rosetta"
7011,South Tasmania,"Austins Ferry, Berriedale, Chigwell, Claremont"
7012,South Tasmania,"Collinsvale, Glenlusk"
7015,South Tasmania,"Geilston Bay, Lindisfarne, Rose Bay"
7016,South Tasmania,Risdon Vale
7017,South Tasmania,"Grasstree Hill, Honeywood, Old Beach, Otago, Tea Tree"
7018,South Tasmania,"Bellerive, Howrah, Montagu Bay, Mornington, Rosny, Rosny Park, Tranmere, Warrane"
7019,South Tasmania,"Clarendon Vale, Rokeby"
7020,South Tasmania,"Clifton Beach, Sandford"
7021,South Tasmania,Lauderdale
7022,South Tasmania,South Arm
7023,South Tasmania,Opossum Bay
7024,South Tasmania,Cremorne
7025,South Tasmania,"Dulcot, Richmond"
7026,South Tasmania,Campania
7027,South Tasmania,Colebrook
7030,South Tasmania,"Apsley, Bagdad, Bothwell, Bridgewater, Brighton, Broadmarsh, Dromedary, Dysart, Elderslie, Gagebrook, Granton, Interlaken, Jericho, Kempton, Lower Marshes, Mangalore, Melton Mowbray, Miena, Pelham, Pontville, Shannon, Steppes, Waddamana"
7050,South Tasmania,"Kingston, Kingston Beach"
7051,South Tasmania,Kingston
7052,South Tasmania,Blackmans Bay
7053,South Tasmania,"Bonnet Hill, Taroona"
7054,South Tasmania,"Barretta, Coningham, Electrona, Fern Tree, Howden, Leslie Vale, Margate, Neika, Ridgeway, Snug, Tinderbox"
7055,South Tasmania,Huntingfield
7109,South Tasmania,"Crabtree, Cradoc, Glaziers Bay, Glen Huon, Glendevie, Grove, Hastings, Huonville, Judbury, Lonnavale, Lower Longley, Lucaston, Lune River, Lymington, Mountain River, Petcheys Bay, Raminea, Ranelagh, Southport, Strathblane, Waterloo, Wattle Grove, Woodstock"
7112,South Tasmania,"Abels Bay, Cygnet, Deep Bay, Eggs And Bacon Bay, Garden Island Creek, Gardners Bay, Nicholls Rivulet, Randalls Bay, Verona Sands"
7113,South Tasmania,Franklin
7116,South Tasmania,"Cairns Bay, Castle Forbes Bay, Geeveston, Police Point, Port Huon, Surges Bay"
7117,South Tasmania,Dover
7119,South Tasmania,Stonor
7120,South Tasmania,"Andover, Antill Ponds, Baden, Tiberias, Lemont, Levendale, Mount Seymour, Oatlands, Parattah, Pawtella, Rhyndaston, Stonehenge, Tiberias, Tunbridge, Tunnack, Whitefoord, Woodbury, Woodsdale, York Plains"
7139,South Tasmania,Strathgordon
7140,South Tasmania,"Black Hills, Boyer, Bradys Lake, Bronte Park, Bushy Park, Butlers Gorge, Dee, Derwent Bridge, Ellendale, Fentonbury, Fitzgerald, Glenfern, Glenora, Gretna, Hamilton, Hayes, Hollow Tree, Karanja, Lachlan, Lake St Clair, Macquarie Plains, Magra, Malbina, Maydena, Molesworth, Moogara, Mount Field, Mount Lloyd, National Park, New Norfolk, Osterley, Ouse, Plenty, Rosegarland, Sorell Creek, Strickland, Tarraleah, Tyenna, Uxbridge, Victoria Valley, Wayatinah, Westerway"
7150,South Tasmania,"Adventure Bay, Allens Rivulet, Alonnah, Barnes Bay, Dennes Point, Gordon, Great Bay, Kaoota, Killora, Longley, Lunawanna, Oyster Cove, Pelverata, Sandfly, Simpsons Bay, Upper Woodstock"
7151,South Tasmania,"Casey, Davis Station, Macquarie Island, Mawson (australian Antarctic Territory)"
7155,South Tasmania,Kettering
7162,South Tasmania,"Birchs Bay, Woodbridge"
7163,South Tasmania,"Flowerpot, Middleton"
7170,South Tasmania,"Acton Park, Cambridge, Mount Rumney, Roches Beach, Seven Mile Beach"
7171,South Tasmania,"Midway Point, Penna"
7172,South Tasmania,"Nugent, Orielton, Pawleena, Sorell, Wattle Hill"
7173,South Tasmania,"Carlton, Connellys Marsh, Dodges Ferry, Forcett, Lewisham, Primrose Sands"
7174,South Tasmania,Copping
7175,South Tasmania,"Bream Creek, Marion Bay"
7176,South Tasmania,Kellevie
7177,South Tasmania,Dunalley
7178,South Tasmania,Murdunna
7179,South Tasmania,Eaglehawk Neck
7180,South Tasmania,Taranna
7182,South Tasmania,Port Arthur
7183,South Tasmania,Highcroft
7184,South Tasmania,"Nubeena, Stormlea"
7185,South Tasmania,Premaydena
7186,South Tasmania,Saltwater River
7187,South Tasmania,Koonya
7190,South Tasmania,"Apslawn, Buckland, Cranbrook, Little Swanport, Orford, Runnymede, Spring Beach, Swansea, Triabunna"
7209,North Tasmania,Ross
7210,North Tasmania,"Campbell Town, Lake Leake"
7211,North Tasmania,"Cleveland, Conara, Epping Forest"
7212,North Tasmania,"Blessington, Burns Creek, Deddington, Evandale, Nile, Western Junction"
7213,North Tasmania,"Avoca, Rossarden, Royal George"
7214,North Tasmania,"Fingal, Mangana, Mathinna, Upper Esk"
7215,North Tasmania,"Beaumaris, Bicheno, Chain Of Lagoons, Coles Bay, Cornwall, Douglas River, Falmouth, Four Mile Creek, Gray, Scamander, Seymour, St Marys"
7216,North Tasmania,"Akaroa, Ansons Bay, Binalong Bay, Goshen, Goulds Country, Lottah, St Helens, Stieglitz"
7248,North Tasmania,"Invermay, Mayfield, Mowbray, Newnham, Rocherlea"
7249,North Tasmania,"Kings Meadows, Punchbowl, South Launceston, Youngtown"
7250,North Tasmania,"East Launceston, Launceston, Newstead, Norwood, Prospect, Prospect Vale, Ravenswood, Riverside, St Leonards, Summerhill, Travellers Rest, Trevallyn, Waverley, West Launceston"
7252,North Tasmania,"Beechford, Dilston, Hillwood, Lefroy, Lulworth, Mount Direction, Pipers River, Swan Bay, Weymouth, Windermere"
7253,North Tasmania,"Bell Bay, George Town, Low Head"
7254,North Tasmania,"Bellingham, Golconda, Lebrina, Pipers Brook, Retreat, Tunnel, Wyena"
7255,North Tasmania,"Blue Rocks, Emita, Killiecrankie, Lackrana, Lady Barron, Loccota, Lughrata, Memana, Palana, Ranga, Whitemark"
7256,North Tasmania,"Currie, Egg Lagoon, Grassy"
7257,North Tasmania,Cape Barren Island
7258,North Tasmania,"Breadalbane, Relbia, White Hills"
7259,North Tasmania,"Myrtle Bank, Nunamara, Patersonia, Targa, Tayene"
7260,North Tasmania,"Blumont, Jetsonville, Lietinna, Lisle, Nabowla, Scottsdale, Springfield, Tonganah, Tulendeena"
7261,North Tasmania,Branxholm
7262,North Tasmania,"Bridport, Tomahawk, Waterhouse"
7263,North Tasmania,"Legerwood, Ringarooma"
7264,North Tasmania,"Cape Portland, Derby, Gladstone, Herrick, Moorina, Musselroe Bay, Pioneer, South Mount Cameron, Weldborough"
7265,North Tasmania,Winnaleah
7267,North Tasmania,"Bangor, Karoola, Lalla, Turners Marsh"
7268,North Tasmania,"Lilydale, North Lilydale, Underwood"
7270,North Tasmania,"Beaconsfield, Beauty Point, Clarence Point, Flowery Gully, Greens Beach, Kayena, Kelso, Rowella, Sidmouth"
7275,North Tasmania,"Blackwall, Deviot, Exeter, Frankford, Glengarry, Holwell, Lanena, Loira, Notley Hills, Robigana, Winkleigh"
7276,North Tasmania,Gravelly Beach
7277,North Tasmania,"Bridgenorth, Grindelwald, Legana, Rosevears"
7290,North Tasmania,Hadspen
7291,North Tasmania,Carrick
7292,North Tasmania,"Hagley, Rosevale, Selbourne, Westwood"
7300,North Tasmania,"Devon Hills, Perth, Powranna"
7301,North Tasmania,"Bishopsbourne, Blackwood Creek, Liffey, Longford, Toiberry"
7302,North Tasmania,"Bracknell, Cressy, Poatina"
7303,North Tasmania,"Birralee, Exton, Westbury, Whitemore"
7304,North Tasmania,"Breona, Caveside, Chudleigh, Dairy Plains, Deloraine, Dunorlan, Elizabeth Town, Golden Valley, Jackeys Marsh, Kimberley, Mayberry, Meander, Mersey Forest, Mole Creek, Moltema, Montana, Needles, Parkham, Red Hills, Reedy Marsh, Weegena, Weetah, Western Creek"
7305,North Tasmania,"Merseylea, Railton, Sunnyside"
7306,North Tasmania,"Acacia Hills, Barrington, Beulah, Claude Road, Cradle Mountain, Gowrie Park, Lorinna, Nook, Paradise, Roland, Sheffield, Staverton, Stoodley"
7307,North Tasmania,"Harford, Hawley Beach, Latrobe, Moriarty, Northdown, Port Sorell, Sassafras, Shearwater, Thirlstane, Wesley Vale"
7310,North Tasmania,"Aberdeen, Devonport, Don, Erriba, Eugenana, Forth, Kindred, Lillico, Melrose, Miandetta, Moina, Paloona, Quoiba, Spreyton, Wilmot"
7315,North Tasmania,"Abbotsham, Gawler, Gunns Plains, Leith, Nietta, North Motton, Preston, Spalford, Sprent, Turners Beach, Ulverstone, Upper Castra"
7316,North Tasmania,"Camena, Cuprona, Heybridge, Howth, Loyetea, Penguin, Preservation Bay, Riana, South Riana, Sulphur Creek, West Pine"
7320,North Tasmania,"Brooklyn, Burnie, Cooee, Havenview, Hillcrest, Montello, Romaine, Wivenhoe"
7321,North Tasmania,"Black River, Boat Harbour, Boat Harbour Beach, Hampshire, Highclere, Mawbanna, Natone, Parrawe, Ridgley, Rocky Cape, Savage River, Sisters Beach, Stowport, Tullah, Waratah"
7322,North Tasmania,Somerset
7325,North Tasmania,"Calder, Doctors Rocks, Elliott, Flowerdale, Lapoinya, Meunna, Milabena, Moorleah, Mount Hicks, Myalla, Oldina, Preolenna, Sisters Creek, Table Cape, Takone, Wynyard, Yolla"
7330,North Tasmania,"Alcomie, Arthur River, Brittons Swamp, Christmas Hills, Edith Creek, Forest, Irishtown, Lileah, Marrawah, Mella, Mengha, Montagu, Nabageena, Redpa, Smithton, Three Hummock Island, Togari, Trowutta, Woolnorth"
7331,North Tasmania,Stanley
7467,North Tasmania,Queenstown
7468,South Tasmania,Strahan
7469,North Tasmania,"Renison Bell, Zeehan"
7470,North Tasmania,Rosebery
