4000,Brisbane And Moreton,"Brisbane, Spring Hill"
4001,Brisbane And Moreton,Brisbane
4002,Brisbane And Moreton,"City East, Wintergarden"
4003,Brisbane And Moreton,Brisbane
4004,Brisbane And Moreton,Brisbane
4005,Brisbane And Moreton,New Farm
4006,Brisbane And Moreton,"Bowen Hills, Fortitude Valley, Herston, Newstead"
4007,Brisbane And Moreton,"Ascot, Hamilton"
4008,Brisbane And Moreton,Pinkenba
4009,Brisbane And Moreton,Eagle Farm
4010,Brisbane And Moreton,Albion
4011,Brisbane And Moreton,"Clayfield, Hendra"
4012,Brisbane And Moreton,"Nundah, Toombul, Wavell Heights, Wavell Heights North"
4013,Brisbane And Moreton,Northgate
4014,Brisbane And Moreton,"Banyo, Nudgee, Nudgee Beach, Virginia"
4017,Brisbane And Moreton,"Bracken Ridge, Brighton, Deagon, Sandgate, Shorncliffe"
4018,Brisbane And Moreton,"Fitzgibbon, Taigum"
4019,Brisbane And Moreton,"Clontarf, Margate, Margate Beach, Woody Point"
4020,Brisbane And Moreton,"Redcliffe, Scarborough"
4021,Brisbane And Moreton,Kippa-ring
4022,Brisbane And Moreton,Rothwell
4025,Brisbane And Moreton,"Bulwer, Cape Moreton, Cowan Cowan, Kooringal, Tangalooma"
4029,Brisbane And Moreton,Royal Brisbane Hospital
4030,Brisbane And Moreton,"Lutwyche, Windsor, Wooloowin"
4031,Brisbane And Moreton,"Gordon Park, Kedron"
4032,Brisbane And Moreton,"Chermside, Chermside West"
4034,Brisbane And Moreton,"Aspley, Boondall, Carseldine, Geebung, Zillmere"
4035,Brisbane And Moreton,"Albany Creek, Bridgeman Downs"
4036,Brisbane And Moreton,Bald Hills
4037,Brisbane And Moreton,Eatons Hill
4051,Brisbane And Moreton,"Alderley, Enoggera, Gaythorne, Grange, Newmarket, Wilston"
4053,Brisbane And Moreton,"Brookside Centre, Everton Hills, Everton Park, Mcdowall, Mitchelton, Stafford, Stafford Heights"
4054,Brisbane And Moreton,"Arana Hills, Keperra"
4055,Brisbane And Moreton,"Bunya, Ferny Grove, Ferny Hills, Upper Kedron"
4059,Brisbane And Moreton,"Kelvin Grove, Red Hill"
4060,Brisbane And Moreton,Ashgrove
4061,Brisbane And Moreton,The Gap
4064,Brisbane And Moreton,"Milton, Paddington"
4065,Brisbane And Moreton,Bardon
4066,Brisbane And Moreton,"Auchenflower, Mount Coot-tha, Toowong"
4067,Brisbane And Moreton,St Lucia
4068,Brisbane And Moreton,"Chelmer, Indooroopilly, Taringa"
4069,Brisbane And Moreton,"Brookfield, Chapel Hill, Fig Tree Pocket, Kenmore, Kenmore Hills, Pinjarra Hills, Pullenvale, Upper Brookfield"
4070,Brisbane And Moreton,"Anstead, Bellbowrie, Moggill"
4072,Brisbane And Moreton,University Of Queensland
4073,Brisbane And Moreton,"Seventeen Mile Rocks, Sinnamon Park"
4074,Brisbane And Moreton,"Jamboree Heights, Jindalee, Middle Park, Mount Ommaney, Riverhills, Sumner, Westlake"
4075,Brisbane And Moreton,"Corinda, Graceville, Graceville East, Oxley, Sherwood"
4076,Brisbane And Moreton,"Darra, Wacol"
4077,Brisbane And Moreton,"Doolandella, Durack, Inala, Richlands"
4078,Brisbane And Moreton,"Ellen Grove, Forest Lake"
4101,Brisbane And Moreton,"Highgate Hill, South Brisbane, West End"
4102,Brisbane And Moreton,"Buranda, Dutton Park, Woolloongabba"
4103,Brisbane And Moreton,"Annerley, Fairfield"
4104,Brisbane And Moreton,Yeronga
4105,Brisbane And Moreton,"Moorooka, Tennyson, Yeerongpilly"
4106,Brisbane And Moreton,Rocklea
4107,Brisbane And Moreton,Salisbury
4108,Brisbane And Moreton,"Archerfield, Coopers Plains"
4109,Brisbane And Moreton,"Macgregor, Robertson, Sunnybank, Sunnybank Hills"
4110,Brisbane And Moreton,"Acacia Ridge, Heathwood, Larapinta, Pallara, Willawong"
4111,Brisbane And Moreton,Nathan
4112,Brisbane And Moreton,Kuraby
4113,Brisbane And Moreton,"Eight Mile Plains, Runcorn"
4114,Brisbane And Moreton,"Kingston, Logan Central, Woodridge"
4115,Brisbane And Moreton,"Algester, Parkinson"
4116,Brisbane And Moreton,"Calamvale, Drewvale, Stretton"
4117,Brisbane And Moreton,"Berrinba, Karawatha"
4118,Brisbane And Moreton,"Browns Plains, Forestdale, Heritage Park, Hillcrest, Regents Park"
4119,Brisbane And Moreton,Underwood
4120,Brisbane And Moreton,"Greenslopes, Stones Corner"
4121,Brisbane And Moreton,"Holland Park, Holland Park West, Tarragindi, Wellers Hill"
4122,Brisbane And Moreton,"Mansfield, Mount Gravatt, Mount Gravatt East, Upper Mount Gravatt, Wishart"
4123,Brisbane And Moreton,"Rochedale, Rochedale South"
4124,Brisbane And Moreton,"Boronia Heights, Greenbank"
4125,Brisbane And Moreton,"Munruben, Park Ridge"
4127,Brisbane And Moreton,"Daisy Hill, Priestdale, Slacks Creek, Springwood"
4128,Brisbane And Moreton,"Shailer Park, Tanah Merah"
4129,Brisbane And Moreton,Loganholme
4130,Brisbane And Moreton,"Carbrook, Cornubia"
4131,Brisbane And Moreton,"Loganlea, Meadowbrook"
4132,Brisbane And Moreton,"Crestmead, Marsden"
4133,Brisbane And Moreton,"Chambers Flat, Logan Reserve, Waterford, Waterford West"
4151,Brisbane And Moreton,Coorparoo
4152,Brisbane And Moreton,"Camp Hill, Carina, Carina Heights, Carindale"
4153,Brisbane And Moreton,Belmont
4154,Brisbane And Moreton,"Gumdale, Ransome, Wakerley"
4155,Brisbane And Moreton,Chandler
4156,Brisbane And Moreton,"Burbank, Mackenzie"
4157,Brisbane And Moreton,"Capalaba, Capalaba West, Sheldon"
4158,Brisbane And Moreton,Thorneside
4159,Brisbane And Moreton,Birkdale
4160,Brisbane And Moreton,"Ormiston, Wellington Point"
4161,Brisbane And Moreton,Alexandra Hills
4163,Brisbane And Moreton,Cleveland
4164,Brisbane And Moreton,Thornlands
4165,Brisbane And Moreton,"Mount Cotton, Redland Bay, Victoria Point"
4169,Brisbane And Moreton,"East Brisbane, Kangaroo Point"
4170,Brisbane And Moreton,"Cannon Hill, Morningside, Norman Park, Seven Hills"
4171,Brisbane And Moreton,"Balmoral, Bulimba, Hawthorne"
4172,Brisbane And Moreton,Murarrie
4173,Brisbane And Moreton,Tingalpa
4174,Brisbane And Moreton,Hemmant
4178,Brisbane And Moreton,"Lytton, Port Of Brisbane, Wynnum, Wynnum North, Wynnum West"
4179,Brisbane And Moreton,"Lota, Manly, Manly West"
4183,Brisbane And Moreton,"Amity, Dunwich, Point Lookout"
4184,Brisbane And Moreton,"Coochiemudlo Island, Karragarra Island, Lamb Island, Macleay Island, Peel Island, Russell Island"
4205,Brisbane And Moreton,Bethania
4207,Brisbane And Moreton,"Alberton, Bahrs Scrub, Bannockburn, Beenleigh, Belivah, Buccan, Cedar Creek, Eagleby, Edens Landing, Holmview, Logan Village, Luscombe, Mount Warren Park, Stapylton, Steiglitz, Windaroo, Wolffdene, Woongoolba, Yatala"
4208,Brisbane And Moreton,"Gilberton, Jacobs Well, Kingsholme, Norwell, Ormeau, Ormeau Hills"
4209,Brisbane And Moreton,"Coomera, Pimpama, Upper Coomera, Willow Vale"
4210,Brisbane And Moreton,"Guanaba, Maudsland, Oxenford, Studio Village, Wongawallan"
4211,Brisbane And Moreton,"Advancetown, Beechmont, Carrara, Clagiraba, Gaven, Gilston, Highland Park, Mount Nathan, Natural Bridge, Nerang, Numinbah Valley, Pacific Pines"
4212,Brisbane And Moreton,"Helensvale, Helensvale Town Centre, Hope Island, Sanctuary Cove"
4213,Brisbane And Moreton,"Austinville, Bonogin, Mudgeeraba, Springbrook, Tallai, Worongary"
4214,Brisbane And Moreton,"Arundel, Ashmore, Molendinar, Parkwood"
4215,Brisbane And Moreton,"Chirn Park, Labrador, Southport"
4216,Brisbane And Moreton,"Biggera Waters, Coombabah, Hollywell, Paradise Point, Runaway Bay, South Stradbroke"
4217,Brisbane And Moreton,"Benowa, Bundall, Chevron Island, Isle Of Capri, Main Beach, Surfers Paradise"
4218,Brisbane And Moreton,"Broadbeach, Broadbeach Waters, Mermaid Beach, Mermaid Waters, Nobby Beach, Pacific Fair"
4219,Brisbane And Moreton,Burleigh
4220,Brisbane And Moreton,"Burleigh Heads, Burleigh Waters, Miami"
4221,Brisbane And Moreton,"Elanora, Palm Beach"
4223,Brisbane And Moreton,"Currumbin, Currumbin Valley, Currumbin Waters"
4224,Brisbane And Moreton,Tugun
4225,Brisbane And Moreton,"Bilinga, Coolangatta"
4226,Brisbane And Moreton,"Clear Island Waters, Merrimac, Robina"
4227,Brisbane And Moreton,"Reedy Creek, Varsity Lakes"
4228,Brisbane And Moreton,"Tallebudgera, Tallebudgera Valley"
4229,Brisbane And Moreton,Bond University
4230,Brisbane And Moreton,Robina Town Centre
4270,Brisbane And Moreton,Tamborine
4271,Brisbane And Moreton,Eagle Heights
4272,Brisbane And Moreton,"Mount Tamborine, North Tamborine, Tamborine Mountain"
4275,Brisbane And Moreton,"Canungra, Lamington National Park, Witheren, Wonglepong"
4280,Brisbane And Moreton,Jimboomba
4285,Brisbane And Moreton,"Beaudesert, Cedar Grove, Cedar Vale, Kooralbyn"
4287,Brisbane And Moreton,"Palen Creek, Rathdowney"
4300,Brisbane And Moreton,"Augustine Heights, Bellbird Park, Brookwater, Camira, Carole Park, Gailes, Goodna, Springfield, Springfield Lakes"
4301,Brisbane And Moreton,"Collingwood Park, Redbank, Redbank Plains"
4303,Brisbane And Moreton,"Dinmore, New Chum, Riverview"
4304,Brisbane And Moreton,"Blackstone, Booval, Bundamba, Ebbw Vale, North Booval, Silkstone"
4305,Brisbane And Moreton,"Basin Pocket, Brassall, Bremer, Churchill, Coalfalls, East Ipswich, Eastern Heights, Flinders View, Ipswich, Leichhardt, Limestone Ridges, Moores Pocket, Newtown, North Ipswich, North Tivoli, One Mile, Raceview, Sadliers Crossing, Tivoli, West Ipswich, Woodend, Wulkuraka, Yamanto"
4306,Brisbane And Moreton,"Amberley, Amberley Raaf, Avoca Vale, Banks Creek, Barellan Point, Benarkin, Benarkin North, Blackbutt, Blackbutt North, Blackbutt South, Blacksoil, Borallon, Cherry Creek, Chuwar, Colinton, Deebing Heights, Fairney View, Fernvale, Googa Creek, Goolman, Haigslea, Harlin, Ironbark, Karalee, Karana Downs, Kholo, Lake Manchester, Linville, Moore, Mount Binga, Mount Crosby, Mount Stanley, Muirlea, Nukku, Peak Crossing, Pine Mountain, Ripley, South Ripley, Teelah, Thagoona, Walloon, Willowbank"
4307,Brisbane And Moreton,Harrisville
4309,Brisbane And Moreton,"Aratula, Frazerview, Kalbar, Washpool"
4310,Brisbane And Moreton,"Boonah, Roadvale"
4311,Brisbane And Moreton,"Buaraba South, Churchable, Coominya, Lockyer Waters, Lowood, Minden, Patrick Estate, Wivenhoe Hill"
4312,Brisbane And Moreton,"Bryden, Caboonbah, Crossdale, Esk, Glen Esk, Moombra, Mount Byron, Redbank Creek, Somerset Dam"
4313,Brisbane And Moreton,"Braemore, Cooeeimbardi, Fulham, Lower Cressbrook, Ottaba, Scrub Creek, Toogoolawah, Yimbun"
4340,Brisbane And Moreton,"Grandchester, Lanefield, Lower Mount Walker, Merryvale, Mount Mort, Mount Walker West, Rosewood, Tallegalla, The Bluff"
4341,Brisbane And Moreton,"Kensington Grove, Laidley, Laidley Creek West, Laidley Heights, Laidley North, Plainland, Townson"
4342,Brisbane And Moreton,"Forest Hill, Glen Cairn, Glenore Grove, Lynford"
4343,Brisbane And Moreton,"Adare, Black Duck Creek, Caffey, College View, East Haldon, Fordsdale, Gatton, Ingoldsby, Junction View, Lake Clarendon, Lawes, Lefthand Branch, Lower Tenthill, Morton Vale, Mount Sylvia, Placid Hills, Ringwood, Rockside, Ropeley, Spring Creek, Upper Tenthill, Vinegar Hill, Woodbine, Woodlands"
4344,Brisbane And Moreton,"Carpendale, Egypt, Flagstone Creek, Helidon, Helidon Spa, Lilydale, Lockyer, Rockmount, Seventeen Mile, Silver Ridge, Stockyard, Upper Flagstone"
4345,Brisbane And Moreton,Gatton College
4346,Brisbane And Moreton,Marburg
4347,Brisbane And Moreton,"Grantham, Ma Ma Creek, Mount Whitestone, Veradilla, Winwill"
4350,Brisbane And Moreton,"Athol, Centenary Heights, Cranley, Darling Heights, Drayton, East Toowoomba, Finnie, Glenvale, Harlaxton, Harristown, Kearneys Spring, Middle Ridge, Mount Kynoch, Mount Lofty, Mount Rascal, Newtown, North Toowoomba, Northlands, Prince Henry Heights, Rangeville, Redwood, Rockville, South Toowoomba, Southtown, Toowoomba, Toowoomba East, Toowoomba South, Toowoomba West, Top Camp, Wellcamp, Westbrook, Wilsonton, Wilsonton Heights, Wyalla Plaza"
4352,Darling Downs,"Amiens, Ballard, Bapaume, Birnam, Blanchview, Branchview, Cabarlah, Cement Mills, Condamine Plains, Cutella, Derrymore, Djuan, Doctor Creek, Evergreen, Fifteen Mile, Geham, Gore, Gowrie Little Plain, Grapetree, Groomsville, Highfields, Highgrove, Iredale, Karara, Kleinton, Kulpi, Kurrowah, Lilyvale, Lyra, Maclagan, Malling, Meringandan, Meringandan West, Merritts Creek, Mount Luke, Muniganeen, Murphys Creek, Narko, North Maclagan, Oman Ama, Palmtree, Pampas, Pechey, Peranga, Perseverance, Postmans Ridge, Pozieres, Preston, Ramsay, Rangemore, Ravensbourne, Severnlea, Spring Bluff, St Aubyn, Thornville, Tummaville, Umbiram, Upper Lockyer, Whichello, White Mountain, Withcott, Woodleigh, Woolmer, Wutul, Wyreema, Yalangur, Yandilla"
4353,Brisbane And Moreton,"Bergen, East Cooyar, Haden"
4354,Brisbane And Moreton,"Douglas, Goombungee"
4355,Brisbane And Moreton,"Crows Nest, Glenaven, Pierces Creek, The Bluff"
4356,Darling Downs,"Bongeen, Broxburn, Evanslea, Irongate, Kincora, Linthorpe, Motley, Mount Tyson, North Branch, Norwin, Pittsworth, Purrawunda, Rossvale, Scrubby Mountain, Springside, St Helens, Stoneleigh, Yarranlea"
4357,Darling Downs,"Bringalily, Bulli Creek, Canning Creek, Captains Mountain, Clontarf, Condamine Farms, Cypress Gardens, Domville, Forest Ridge, Grays Gate, Kooroongarra, Lavelle, Lemontree, Millmerran, Millmerran Downs, Millmerran Woods, Millwood, Mount Emlyn, Punchs Creek, Rocky Creek, Stonehenge, The Pines, Turallin, Wattle Ridge, Western Creek, Woondul"
4358,Brisbane And Moreton,"Cambooya, Felton, Felton South, Vale View"
4359,Brisbane And Moreton,"Budgee, Greenmount, Greenmount East, West Haldon"
4360,Brisbane And Moreton,Nobby
4361,Brisbane And Moreton,"Clifton, Ellangowan, Elphinstone, Headington Hill, Kings Creek, Manapouri, Missen Flat, Mount Molar, Nevilton, Ryeford, Sandy Camp, Spring Creek, Victoria Hill"
4362,Brisbane And Moreton,"Allora, Deuchar, Goomburra, Mount Marshall"
4363,Brisbane And Moreton,Southbrook
4364,Darling Downs,Brookstead
4365,Darling Downs,Leyburn
4370,Brisbane And Moreton,"Maryvale, Warwick"
4371,Brisbane And Moreton,"Emu Vale, Yangan"
4372,Brisbane And Moreton,Tannymorel
4373,Brisbane And Moreton,Killarney
4374,Darling Downs,Dalveen
4375,Darling Downs,Cottonvale
4376,Darling Downs,Thulimbah
4377,Darling Downs,The Summit
4378,Darling Downs,Applethorpe
4380,Darling Downs,"Kyoomba, Stanthorpe"
4381,Darling Downs,Glen Aplin
4382,Darling Downs,Ballandean
4383,Darling Downs,Wallangarra
4384,Darling Downs,Limevale
4385,Darling Downs,"Beebo, Bonshaw, Glenarbon, Maidenhead, Riverton, Silver Spur, Smithlea, Texas, Watsons Crossing"
4387,Darling Downs,"Brush Creek, Bybera, Coolmunda, Greenup, Inglewood, Mosquito Creek, Terrica, Warroo, Whetstone"
4388,Darling Downs,"Kurumbul, Yelarbon"
4390,Darling Downs,"Billa Billa, Calingunee, Callandoon, Goodar, Goondiwindi, Kindon, Lundavra, Wondalli, Wyaga, Yagaburne"
4400,Darling Downs,Kingsthorpe
4401,Darling Downs,"Acland, Balgowan, Boodua, Devon Park, Greenwood, Highland Plains, Kelvinhaugh, Mount Irving, Muldu, Oakey, Rosalie Plains, Sabine, Silverleigh, Yargullen"
4402,Darling Downs,"Cooyar, Kooralgin"
4403,Darling Downs,"Brymaroo, Jondaryan, Malu, Mount Moriah, Quinalow, West Prairie"
4404,Darling Downs,"Bowenville, Formartin, Irvingdale, Wainui"
4405,Darling Downs,"Bunya Mountains, Dalby, Grassdale, Tipton"
4406,Darling Downs,"Boondandilla, Hannaford, Jimbour, Kaimkillenbun, Kogan, Macalister, Moonie, The Gums, Weir River"
4407,Darling Downs,"Cattle Creek, Cecil Plains, Dunmore, Nangwee"
4408,Darling Downs,Bell
4410,Darling Downs,Jandowae
4411,Darling Downs,Warra
4412,Darling Downs,Brigalow
4413,Darling Downs,"Chinchilla, Hopeland, Wieambilla"
4415,Darling Downs,"Gurulmundi, Hookswood, Kowguran, Miles, Myall Park, Pelham"
4416,Darling Downs,"Barramornie, Condamine, Moraby, Nangram, Pine Hills, Sunnyside, Yulabilla"
4417,Darling Downs,Surat
4418,Darling Downs,Guluguba
4419,Fitzroy,"Cockatoo, Grosmont, Wandoan"
4420,Fitzroy,"Broadmere, Coorada, Ghinghinda, Glenhaughton, Gwambegwine, Hornet Bank, Peek-a-doo, Taroom"
4421,Darling Downs,"Goranba, Tara"
4422,Darling Downs,Meandarra
4423,Darling Downs,Glenmorgan
4424,Darling Downs,"Drillham, Drillham South, Glenaubyn"
4425,Darling Downs,Dulacca
4426,Darling Downs,"Jackson, Jackson North, Jackson South"
4427,Darling Downs,"Yuleba, Yuleba North, Yuleba South"
4428,Darling Downs,"Pickanjinnie, Wallumbilla, Wallumbilla North, Wallumbilla South"
4454,Fitzroy,"Baffle West, Beilba, Durham Downs, Highland Plains, Hutton Creek, Injune, Mount Hutton, Pony Hills, Simmie, Upper Dawson, Westgrove"
4455,South West,"Blythdale, Bungeworgorai, Bungil, Bymount, Cornwall, Dargal Road, Eumamurrin, Euthulla, Gunnewin, Hodgson, Mooga, Mount Abundance, Mount Bindango, Orallo, Orange Hill, Roma, Tingun"
4461,South West,Muckadilla
4462,South West,Amby
4465,South West,Mitchell
4467,South West,Mungallala
4468,South West,Morven
4470,South West,Charleville
4471,South West,Claverton
4472,Central West,"Blackall, Mount Enniskillen"
4474,South West,Adavale
4475,South West,Cheepie
4477,Fitzroy,Augathella
4478,Fitzroy,"Bayrick, Caldervale, Lansdowne, Lumeah, Macfarlane, Minnie Downs, Scrubby Creek, Tambo, Windeyer, Yandarlo"
4479,South West,Cooladdi
4480,South West,"Eromanga, Quilpie"
4481,Central West,"Tanbar, Windorah"
4482,Central West,Birdsville
4486,South West,"Dirranbandi, Hebel"
4487,South West,St George
4488,South West,"Bollon, Nebine"
4489,South West,Wyandra
4490,South West,"Barringun, Coongoola, Cunnamulla, Cuttaburra, Humeburn, Jobs Gate, Linden, Noorama, Tuen, Widgeegoara, Yowah"
4491,South West,Eulo
4492,South West,Thargomindah
4493,South West,Hungerford
4494,Darling Downs,"Bungunya, North Bungunya, Tarawera"
4496,Darling Downs,"North Talwood, South Talwood, Talwood"
4497,Darling Downs,"Daymar, Thallon, Weengallon"
4498,Darling Downs,"Kioma, Toobeah"
4500,Brisbane And Moreton,"Bray Park, Brendale, Cashmere, Clear Mountain, Joyner, Strathpine, Warner"
4501,Brisbane And Moreton,Lawnton
4502,Brisbane And Moreton,Petrie
4503,Brisbane And Moreton,"Dakabin, Griffin, Kallangur, Kurwongbah, Murrumba Downs, Whiteside"
4504,Brisbane And Moreton,Narangba
4505,Brisbane And Moreton,Burpengary
4506,Brisbane And Moreton,Morayfield
4507,Brisbane And Moreton,"Banksia Beach, Bellara, Bongaree, Bribie Island, Bribie Island North, Welsby, White Patch, Woorim"
4508,Brisbane And Moreton,Deception Bay
4509,Brisbane And Moreton,"Mango Hill, North Lakes"
4510,Brisbane And Moreton,"Beachmere, Caboolture, Caboolture South, Donnybrook, Toorbul"
4511,Brisbane And Moreton,"Godwin Beach, Ningi, Sandstone Point"
4512,Brisbane And Moreton,"Bracalba, Wamuran, Wamuran Basin"
4514,Brisbane And Moreton,"Commissioners Flat, D Aguilar, Mount Archer, Mount Delaney, Stony Creek, Woodford"
4515,Brisbane And Moreton,"Hazeldean, Jimna, Kilcoy, Monsildale"
4516,Brisbane And Moreton,Elimbah
4517,Brisbane And Moreton,Beerburrum
4518,Brisbane And Moreton,Glass House Mountains
4519,Brisbane And Moreton,"Beerwah, Coochin Creek, Crohamhurst, Peachester"
4520,Brisbane And Moreton,"Armstrong Creek, Camp Mountain, Cedar Creek, Closeburn, Draper, Enoggera Reservoir, Highvale, Jollys Lookout, Kobble Creek, Mount Glorious, Mount Nebo, Samford, Mount Samson, Samford, Samsonvale, Wights Mountain, Yugar"
4521,Brisbane And Moreton,"Dayboro, King Scrub, Laceys Creek, Mount Mee, Mount Pleasant, Ocean View, Rush Creek"
4550,Brisbane And Moreton,Landsborough
4551,Brisbane And Moreton,"Aroona, Battery Hill, Bells Creek, Caloundra, Caloundra West, Currimundi, Dicky Beach, Golden Beach, Kings Beach, Little Mountain, Moffat Beach, Pelican Waters, Shelly Beach"
4552,Brisbane And Moreton,"Balmoral Ridge, Booroobin, Cambroon, Conondale, Curramore, Elaman Creek, Harper Creek, Maleny, North Maleny, Wootha"
4553,Brisbane And Moreton,"Diamond Valley, Mooloolah, Palmview"
4554,Brisbane And Moreton,"Eudlo, Ilkley"
4555,Brisbane And Moreton,"Hunchy, Palmwoods"
4556,Brisbane And Moreton,"Buderim, Kunda Park, Sippy Downs, Tanawha"
4557,Brisbane And Moreton,"Mooloolaba, Mountain Creek"
4558,Brisbane And Moreton,"Cotton Tree, Maroochydore, Sunshine Plaza"
4559,Brisbane And Moreton,"Diddillibah, Kiels Mountain, Woombye"
4560,Brisbane And Moreton,"Bli Bli, Dulong, Mapleton, Montville, Nambour, Perwillowen"
4561,Brisbane And Moreton,"Maroochy River, Yandina"
4562,Brisbane And Moreton,Eumundi
4563,Brisbane And Moreton,"Cooroy, Cooroy Mountain, Lake Macdonald, Tinbeerwah"
4564,Brisbane And Moreton,"Marcoola, Mudjimba, Pacific Paradise, Twin Waters"
4565,Wide Bay-burnett,"Boreen Point, Cooroibah, Cootharaba, Noosa North Shore, Ringtail Creek, Tewantin"
4566,Brisbane And Moreton,Noosaville
4567,Brisbane And Moreton,"Castaways Beach, Noosa Heads, Sunrise Beach, Sunshine Beach"
4568,Brisbane And Moreton,"Federal, Pinbarren, Pomona"
4569,Brisbane And Moreton,Cooran
4570,Wide Bay-burnett,"Amamoor, Amamoor Creek, Anderleigh, Araluen, Banks Pocket, Beenaam Valley, Bella Creek, Bollier, Canina, Calgoa, Coles Creek, Corella, Curra, Downsfield, Fishermans Pocket, Gilldora, Glanmire, Glen Echo, Glenwood, Greens Creek, Gunalda, Gympie, Imbil, Jones Hill, Kandanga, Kandanga Creek, Kanigan, Kia Ora, Lake Borumba, Long Flat, Marodian, Marys Creek, Mcintosh Creek, Melawondi, Miva, Monkland, Mooloo, Munna Creek, Nahrunda, Neusa Vale, North Deep Creek, Paterson, Ross Creek, Scotchy Pocket, Scrubby Creek, Sexton, St Mary, Toolara Forest, Upper Glastonbury, Upper Kandanga, Widgee Crossing North, Widgee Crossing South, Woolooga"
4571,Wide Bay-burnett,Kin Kin
4572,Wide Bay-burnett,Alexandra Headland
4573,Brisbane And Moreton,"Coolum Beach, Marcus Beach, Mount Coolum, Peregian Beach, Peregian Springs, Yaroomba"
4574,Brisbane And Moreton,"Kenilworth, Moy Pocket"
4575,Wide Bay-burnett,"Birtinya, Bokarina, Buddina, Minyama, Parrearra, Warana, Wurtulla"
4580,Wide Bay-burnett,"Cooloola, Cooloola Cove, Tin Can Bay"
4581,Wide Bay-burnett,"Eurong, Inskip, Rainbow Beach"
4600,Wide Bay-burnett,"Black Snake, Kilkivan, Mudlo, Oakview"
4601,Wide Bay-burnett,"Barambah, Boonara, Booubyjan, Goomeri, Goomeribong, Kinbombi, Manumbar, Tansey, Wrattens Forest"
4605,Wide Bay-burnett,"Barlil, Cherbourg, Cloyna, Cobbs Hill, Glenrock, Kitoba, Merlwood, Moffatdale, Moondooner, Murgon, Oakdale, Redgate, Silverleaf, Sunny Nook, Tablelands, Warnung, Wooroonden"
4606,Wide Bay-burnett,"Chelmsford, Fairdale, Leafdale, Mount Mceuen, Mp Creek, Wheatlands, Wondai"
4608,Wide Bay-burnett,"Charlestown, Tingoora, Wilkesdale, Wooroolin"
4610,Darling Downs,"Alice Creek, Ballogie, Benair, Booie, Boyneside, Chahpingah, Coolabunia, Corndale, Dangore, Durong, Durong South, Goodger, Gordonbrook, Haly Creek, Hodgleigh, Inverlaw, Ironpot, Kingaroy, Kumbia, Mannuem, Taabinga, Wattle Grove"
4611,Wide Bay-burnett,"Marshlands, Mondure"
4612,Wide Bay-burnett,"Hivesville, Kawl Kawl, Keysland, Stonelands, Wigton"
4613,Wide Bay-burnett,"Abbeywood, Boondooma, Coverty, Melrose, Okeden, Proston"
4614,Brisbane And Moreton,"Neumgna, Upper Yarraman, Yarraman"
4615,Brisbane And Moreton,"Barker Creek Flat, Bullcamp, East Nanango, Glan Devon, Johnstown, Kunioon, Maidenwell, Nanango, Pimpimbudgee, Runnymede, Sandy Ridges, South East Nanango, Tarong, Wattle Camp, Wengenville, Wyalla"
4620,Wide Bay-burnett,"Brooweena, Doongul, Gigoomgan, Glenbar, Gungaloon, Malarga, North Aramara, Teebar, Woocoo"
4621,Wide Bay-burnett,"Biggenden, Boompa, Coringa, Degilbo, Didcot, Golden Fleece, Wateranga, Woowoonga"
4625,Wide Bay-burnett,"Aranbanga, Ban Ban, Ban Ban Springs, Barlyne, Bon Accord, Branch Creek, Campbell Creek, Deep Creek, Dirnbir, Dundarrah, Gayndah, Ginoondan, Harriet, Humphery, Ideraway, Mingo, Mount Debateable, Mount Lawless, Penwhaupell, Pile Gully, Reids Creek, Stockhaven, The Limits, Toondahra, Wahoon, Wetheron, Wilson Valley, Woodmillar, Yenda"
4626,Wide Bay-burnett,"Beeron, Boynewood, Brovinia, Cattle Creek, Coonambula, Derri Derra, Dykehead, Glenrae, Hawkwood, Monogorilby, Mundowran, Mundubbera, Old Cooranga, Philpott, Riverleigh"
4627,Wide Bay-burnett,"Abercorn, Ceratodus, Cheltenham, Cynthia, Eidsvold, Eidsvold East, Eidsvold West, Grosvenor, Malmoe, Wuruma Dam"
4630,Wide Bay-burnett,"Bukali, Cania, Cannindah, Coominglah, Coominglah Forest, Glenleigh, Harrami, Kalpowar, Kapaldo, Langley, Monal, Monto, Mulgildie, Selene, Splinter Creek, Tellebang, Three Moon, Ventnor, Yarrol"
4650,Wide Bay-burnett,"Antigua, Bauple, Bauple Forest, Beaver Rock, Boonooroo, Boonooroo Plains, Duckinwilla, Dundathu, Dunmora, Ferney, Glenorchy, Gootchie, Grahams Creek, Granville, Gundiah, Maryborough, Mount Steadman, Mount Urah, Mungar, Netherby, Oakhurst, Owanyilla, Pilerwa, Pioneers Rest, St Helens, Talegalla Weir, Tandora, Teddington, The Dimonds, Thinoomba, Tiaro, Tinana, Tinana South, Tuan Forest, Walkers Point"
4655,Wide Bay-burnett,"Booral, Bunya Creek, Dundowran Beach, Eli Waters, Great Sandy Strait, Happy Valley, Hervey Bay, Kawungan, Nikenbah, Pialba, Point Vernon, Scarness, Sunshine Acres, Susan River, Torquay, Urangan, Urraween, Walliebum, Walligan, Wondunna"
4659,Wide Bay-burnett,"Beelbi Creek, Burgowan, Burrum Heads, Burrum River, Burrum Town, Howard, Pacific Haven"
4660,Wide Bay-burnett,"Abington, Buxton, Cherwell, Childers, Cordalba, Eureka, Goodwood, Gregory River, Horton, Isis Central, Isis River, Kullogum, North Gregory, Promisedland, Woodgate"
4662,Wide Bay-burnett,Torbanlea
4670,Wide Bay-burnett,"Abbotsford, Alloway, Ashfield, Avenell Heights, Avoca, Avondale, Bargara, Branyan, Bundaberg, Bundaberg Central, Bundaberg East, Bundaberg North, Bundaberg South, Bundaberg West, Burnett Heads, Calavos, Coral Cove, Electra, Elliott, Elliott Heads, Givelda, Kalkie, Kensington, Kepnock, Kinkuna, Meadowvale, Millbank, Moore Park Beach, Moorland, Mullett Creek, Norville, Qunaba, Rubyanna, Sharon, South Bingera, South Kolan, Svensson Heights, Thabeban, Walkervale, Watalgan, Welcome Creek, Windermere"
4671,Wide Bay-burnett,"Boolboonda, Booyal, Dalysford, Damascus, Delan, Doughboy, Drinan, Duingal, Gaeta, Gin Gin, Good Night, Horse Camp, Kolonga, Lake Monduran, Maroondan, Mcilwraith, Molangul, Monduran, Moolboolaman, Morganville, Mount Perry, Mungy, Nearum, New Moonta, Redhill Farms, Skyring Reserve, St Agnes, St Kilda, Takilberan, Tirroan, Wallaville, Wonbah, Wonbah Forest"
4673,Wide Bay-burnett,"Miara, Waterloo, Yandaran"
4674,Wide Bay-burnett,"Baffle Creek, Berajondo, Deepwater, Euleilah, Mount Maria, Oyster Creek, Rosedale, Rules Beach, Taunton"
4676,Wide Bay-burnett,"Gindoran, Lowmead"
4677,Wide Bay-burnett,"Agnes Water, Captain Creek, Colosseum, Eurimbula, Miriam Vale, Mount Tom, Round Hill, Seventeen Seventy"
4678,Wide Bay-burnett,"Bororen, Foreshores, Rodds Bay"
4680,Fitzroy,"Barney Point, Benaraby, Boyne Island, Boyne Valley, Boynedale, Builyan, Byellee, Callemondah, Calliope, Clinton, Diglum, Gladstone, Glen Eden, Heron Island, Iveragh, Kin Kora, Kirkwood, Mount Alma, New Auckland, O Connell, River Ranch, South Gladstone, South Trees, Sun Valley, Tablelands, Tannum Sands, Taragoola, Telina, Toolooa, Ubobo, West Gladstone, West Stowe, Wooderson"
4694,Fitzroy,"Aldoga, Targinie, Yarwun"
4695,Fitzroy,"Bracewell, Darts Creek, East End, Machine Creek, Mount Larcom, The Narrows"
4697,Fitzroy,Raglan
4699,Fitzroy,"Bajool, Port Alma"
4700,Fitzroy,"Allenstown, Fairy Bower, Great Keppel Island, Port Curtis, Rockhampton, The Keppels, The Range, Wandal, West Rockhampton"
4701,Fitzroy,"Berserker, Central Queensland University, Frenchville, Greenlake, Kawana, Koongal, Limestone Creek, Mount Archer, Nankin, Norman Gardens, North Rockhampton, Park Avenue, Rockyview, Sandringham, The Common"
4702,Fitzroy,"Alberta, Alsace, Anakie, Argoon, Balcomba, Banana, Baralaba, Barnard, Bingegang, Blackdown, Bluff, Bouldercombe, Bushley, Canal Creek, Canoona, Central Queensland Mc, Comet, Coomoo, Coorooman, Coowonga, Dalma, Dingo, Dixalea, Dululu, Dumpy Creek, Etna Creek, Gainsford, Garnant, Glenroy, Gogango, Goomally, Goovigen, Goowarra, Gracemere, Jambin, Jardine, Jellinbah, Joskeleigh, Kalapa, Keppel Sands, Kokotungo, Mackenzie, Midgee, Mimosa, Morinish, Morinish South, Mount Chalmers, Nine Mile, Parkhurst, Pheasant Creek, Pink Lily, Ridgelands, Rolleston, Rossmoya, Rubyvale, Sapphire, Shoalwater, Smoky Creek, South Yaamba, Stanage, Stanwell, Stewarton, Thompson Point, Tungamull, Ulogie, Wallaroo, Westwood, Willows Gemfields, Woolein, Wooroona, Wowan, Wycarbah, Yaraka"
4703,Fitzroy,"Adelaide Park, Bangalee, Barlows Hill, Barmaryee, Barmoya, Byfield, Causeway Lake, Cobraball, Cooee Bay, Hidden Valley, Inverness, Lake Mary, Lammermoor, Maryvale, Meikleville Hill, Mulambin, Mulara, Pacific Heights, Rosslyn, Stockyard, Tanby, Taranganba, Taroomball, Weerriba, Yeppoon"
4704,Fitzroy,"Wattlebank, Yaamba"
4705,Mackay,"Clarke Creek, Lotus Creek, Mackenzie River, Marlborough, Mount Gardiner"
4706,Mackay,Ogmore
4707,Mackay,"Collaroy, St Lawrence, The Percy Group"
4709,Mackay,Tieri
4710,Fitzroy,"Emu Park, Zilzie"
4711,Fitzroy,"Glendale, Glenlee"
4712,Fitzroy,Duaringa
4713,Fitzroy,Woorabinda
4714,Fitzroy,"Baree, Boulder Creek, Fletcher Creek, Hamilton Creek, Horse Creek, Johnsons Hill, Leydens Hill, Limestone, Moongan, Mount Morgan, Nine Mile Creek, Oakey Creek, The Mine, Trotter Creek, Walmul, Wura"
4715,Fitzroy,"Biloela, Callide, Castle Creek, Dakenba, Dumgree, Greycliffe, Orange Creek, Prospect, Tarramba"
4716,Wide Bay-burnett,"Lawgi Dawes, Thangool"
4717,Fitzroy,Blackwater
4718,Fitzroy,"Bauhinia, Dromedary, Kianga, Moura, Mungabunda, Oombabeer, Rhydding, Roundstone, Warnoah"
4719,Fitzroy,"Camboon, Cracow, Glenmoral, Isla, Lonesome Creek, Theodore"
4720,Fitzroy,Emerald
4721,Mackay,"Argyll, Clermont, Pasha"
4722,Fitzroy,Springsure
4723,Mackay,Capella
4724,Mackay,Alpha
4725,Central West,Barcaldine
4726,Mackay,Aramac
4727,Central West,Ilfracombe
4728,Mackay,Jericho
4730,Central West,"Camoola, Chorregon, Ernestina, Longreach, Maneroo, Morella, Stonehenge, Tocal, Vergemont"
4731,Central West,Isisford
4732,Mackay,Muttaburra
4733,Central West,Corfield
4735,Central West,"Diamantina Lakes, Middleton, Opalton, Winton"
4736,Central West,Jundah
4737,Mackay,"Armstrong Beach, Blue Mountain, Freshwater Point, Sarina, Sarina Beach, Sarina Range"
4738,Mackay,Koumala
4739,Mackay,Carmila
4740,Mackay,"Alexandra, Alligator Creek, Andergrove, Balberra, Balnagowan, Bakers Creek, Beaconsfield, Belmunda, Blacks Beach, Cape Hillsborough, Coningsby, Dolphin Heads, Dundula, Dunnrock, East Mackay, Eimeo, Erakala, Foulden, Glenella, Grasstree Beach, Habana, Haliday Bay, Hay Point, Homebush, Mackay, Mcewens Beach, Mount Jukes, Mount Pleasant, Munbura, Nindaroo, North Mackay, Ooralea, Paget, Racecourse, Richmond, Rosella, Rural View, Sandiford, Slade Point, South Mackay, Te Kowai, The Leap, West Mackay"
4741,Mackay,"Brampton Island, Coppabella, Daydream Island, Epsom, Eton, Eton North, Eungella Hinterland, Farleigh, Gargett, Hampden, Hazledean, Kinchant Dam, Kuttabul, Lindeman Island, Long Island, Mackay Mc, Mount Charlton, Mount Ossa, Mount Pelion, Owens Creek, Pinnacle, Pleystowe, Seaforth, South Molle"
4742,Mackay,"Burton, Eaglefield, Elphinstone, Hail Creek, Kemmis, Mount Britton, Nebo, Oxford, Strathfield, Turrawulla, Valkyrie"
4743,Mackay,"Glenden, Suttor"
4744,Mackay,Moranbah
4745,Mackay,Dysart
4746,Mackay,"May Downs, Middlemount"
4750,Mackay,"Bucasia, Shoal Point"
4751,Mackay,"Greenmount, Victoria Plains, Walkerston"
4753,Mackay,"Devereux Creek, Marian"
4754,Mackay,"Benholme, Dows Creek, Mia Mia, Mirani, Mount Martin, Pinevale, Septimus"
4756,Mackay,"Finch Hatton, Netherdale"
4757,Mackay,"Broken River, Crediton, Dalrymple Heights, Eungella, Eungella Dam"
4798,Mackay,"Calen, Mentmore"
4799,Mackay,Bloomsbury
4800,Mackay,"Andromache, Brandy Creek, Breadalbane, Cape Conway, Cape Gloucester, Conway Beach, Crystal Brook, Dittmer, Foxdale, Glen Isla, Goorganga Creek, Goorganga Plains, Gregory River, Gunyarra, Hamilton Plains, Hideaway Bay, Kelsey Creek, Laguna Quays, Lake Proserpine, Lethebrook, Mount Pluto, Myrtlevale, Palm Grove, Pauls Pocket, Preston, Proserpine, Silver Creek, Sugarloaf, Thoopara, Wilson Beach"
4801,Mackay,Hayman Island
4802,Mackay,"Airlie Beach, Cannonvale, Flametree, Mandalay, Mount Rooper, Shute Harbour, Whitsundays, Woodwark"
4803,Mackay,Hamilton Island
4804,Mackay,"Collinsville, Mount Coolon, Mount Wyatt, Newlands, Springlands"
4805,Northern,"Bogie, Bowen, Guthalungra, Merinda, Queens Beach"
4806,Northern,"Carstairs, Fredericksfield, Home Hill, Inkerman, Kirknie, Osborne, Rangemore, Wangaratta, Wunjunga"
4807,Northern,"Airdmillan, Airville, Alva, Ayr, Clare, Dalbeg, Eight Mile Creek, Jarvisfield, Mcdesme, Millaroo, Mona Park, Mount Kelly, Mulgrave, Parkside, Swans Lagoon"
4808,Northern,"Brandon, Colevale"
4809,Northern,"Barratta, Cromarty, Giru, Horseshoe Lagoon, Jerona, Mount Surround, Shirbourne, Upper Haughton"
4810,Northern,"Belgian Gardens, Castle Hill, North Ward, Pallarenda, Railway Estate, Rowes Bay, Shelly Beach, South Townsville, Town Common, Townsville, West End"
4811,Northern,"Cluden, Idalia, James Cook University, Oak Valley, Oonoonba, Roseneath, Stuart, Wulguru"
4812,Northern,"Currajong, Gulliver, Hermit Park, Hyde Park, Mundingburra, Mysterton, Pimlico, Rosslea"
4813,Northern,Townsville Milpo
4814,Northern,"Aitkenvale, Annandale, Cranbrook, Douglas, Garbutt, Heatley, Mount Louisa, Murray, Vincent"
4815,Northern,"Condon, Kelso, Rasmussen"
4816,Northern,"Alligator Creek, Barringha, Brookhill, Cungulla, Greenvale, Hidden Valley, Homestead, Julago, Kennedy, Macrossan, Mingela, Mutarnee, Nelia, Nome, Palm Island, Paluma, Pentland, Prairie, Ravenswood, Rollingstone, Ross River, Sellheim, Torrens Creek, Woodstock"
4817,Northern,"Alice River, Bohle Plains, Hervey Range, Kirwan, Thuringowa Central"
4818,Northern,"Black River, Bluewater, Bluewater Park, Bohle, Bushland Beach, Deeragun, Mount St John, Saunders Beach, Toolakea, Yabulu"
4819,Northern,"Arcadia, Horseshoe Bay, Magnetic Island, Nelly Bay, Picnic Bay, West Point"
4820,Northern,"Alabama Hill, Charters Towers, Columbia, Grand Secret, Lissner, Millchester, Mosman Park, Queenton, Richmond Hill, Toll, Towers Hill"
4821,Northern,"Hughenden, Stamford, Richmond"
4822,North West,"Albion, Burleigh"
4823,North West,"Julia Creek, Kynuna, Mckinlay, Warburton"
4824,North West,"Cloncurry, Oorindi"
4825,North West,"Breakaway, Buckingham, Carrandotta, Dajarra, Fisher, Georgina, Happy Valley, Healy, Menzies, Mica Creek, Miles End, Mornington, Mount Isa, Parkside, Pioneer, Piturie, Ryan, Soldiers Hill, Sunset, The Gap, The Monument, Townview, Waverley, Winston"
4828,North West,Camooweal
4829,Central West,"Amaroo, Bedourie, Boulia, Min Min, Sturt, Toko, Warenda, Wills"
4830,North West,"Burketown, Doomadgee"
4849,Northern,Cardwell
4850,Northern,"Abergowrie, Allingham, Gairloch, Halifax, Hawkins Creek, Ingham, Lucinda, Macknade, Mount Fox, Taylors Beach, Upper Stone, Victoria Plantation"
4852,Far North,"Bingil Bay, Djiru, Garners Beach, Midgeree Bar, Mission Beach, Wongaling Beach"
4854,Far North,"Cardstone, Euramo, Murray Upper, Tully"
4855,Far North,"Daveson, El Arish, Friday Pocket, Granadilla, Jaffa, Maadi, Maria Creeks, Shell Pocket"
4856,Far North,"Goolboo, Mccutcheon, No 5 Branch, Silkwood, Silkwood"
4857,Far North,Silkwood East
4858,Far North,"Comoon Loop, Etty Bay, Martyville, Mourilyan, Mourilyan Harbour, New Harbourline"
4859,Far North,"No 6 Branch, South Johnstone"
4860,Far North,"Bamboo Creek, Belvedere, Coconuts, Cooroo Lands, Coorumba, Coquette Point, Cullinane, Daradgee, East Innisfail, East Palmerston, Eaton, Eubenangee, Fitzgerald Creek, Flying Fish Point, Garradunga, Goondi, Goondi Bend, Goondi Hill, Hudson, Innisfail, Innisfail Estate, Jubilee Heights, Mighell, Mundoo, Nerada, Njatjan, O Briens Hill, Palmerston, Pin Gin Hill, South Innisfail, Stoters Hill, Sundown, Upper Daradgee, Vasa Views, Wanjuru, Webb, Wooroonooran"
4861,Far North,"Babinda, Bartle Frere, East Russell"
4865,Far North,"Goldsborough, Gordonvale, Kamma"
4868,Far North,"Bayview Heights, Mount Sheridan, White Rock, Woree"
4869,Far North,"Bentley Park, Edmonton, Mount Peter, Wrights Creek"
4870,Far North,"Aeroglen, Brinsmead, Bungalow, Cairns, Cairns North, Cairns Orchid Plaza, Earlville, Edge Hill, Freshwater, Kamerunga, Kanimbla, Manoora, Manunda, Martynvale, Mooroobool, Parramatta Park, Redlynch, Stratford, Westcourt, Whitfield"
4871,Far North,"Almaden, Aloomba, Aurukun, Basilisk, Bellenden Ker, Bombeeta, Boogan, Camp Creek, Chillagoe, Coen, Cowley, Cowley Beach, Cowley Creek, Croydon, Currajah, Deeral, East Trinity, Edward River, Einasleigh, Fishery Falls, Forsayth, Georgetown, Germantown, Glen Boughton, Green Island, Gununa, Julatten, Kowanyama, Kurrimine Beach, Laura, Lockhart, Lower Cowley, Mena Creek, Miriwinni, Moresby, Mount Carbine, Mount Molloy, Mount Surprise, Pormpuraaw, Sandy Pocket, Stockton, Utchee Creek, Wangan, Warrubullen, Yarrabah"
4872,Far North,"Barrine, Danbulla, Dimbulah, Glen Ruth, Gunnawarra, Innot Hot Springs, Kairi, Kirrama, Koombooloomba, Lake Tinaroo, Minnamoolka, Mount Garnet, Mutchilba, Silver Valley, Tinaroo, Wairuna, Walkamin"
4873,Far North,"Daintree, Diwan, Mossman, Newell, Wonga"
4874,Far North,"Evans Landing, Nanum, Rocky Point, Trunding, Weipa, Weipa Airport"
4875,Far North,"Badu Island, Thursday Island"
4876,Far North,Bamaga
4877,Far North,Port Douglas
4878,Far North,"Barron, Caravonica, Holloways Beach, Machans Beach, Smithfield, Yorkeys Knob"
4879,Far North,"Clifton Beach, Ellis Beach, Kewarra Beach, Palm Cove, Trinity Beach, Trinity Park"
4880,Far North,Mareeba
4881,Far North,Kuranda
4882,Far North,Tolga
4883,Far North,"Atherton, Carrington, East Barron, Upper Barron, Wongabel"
4884,Far North,Yungaburra
4885,Far North,Malanda
4886,Far North,Millaa Millaa
4887,Far North,"Herberton, Irvinebank, Moomin, Watsonville, Wondecla"
4888,Far North,"Evelyn, Kaban, Millstream, Ravenshoe, Tumoulin"
4890,North West,Normanton
4891,North West,Karumba
4895,Far North,Cooktown
9726,Brisbane And Moreton,Gold C
