800,Darwin,Darwin
801,Darwin,Darwin
804,Darwin,Parap
810,Darwin,"Alawa, Brinkin, Casuarina, Coconut Grove, Jingili, Lee Point, Millner, Moil, Nakara, Nightcliff, Rapid Creek, Tiwi, Wagaman, Wanguri"
811,Darwin,Casuarina
812,Darwin,"Anula, Karama, Leanyer, Malak, Marrara, Sanderson, Woodleigh Gardens, Wulagi"
813,Darwin,Sanderson
814,Darwin,Nightcliff
815,Darwin,Charles Darwin University
820,Darwin,"Bagot, Coonawarra, East Point, Fannie Bay, Larrakeyah, Ludmilla, Parap, Stuart Park, The Gardens, The Narrows, Winnellie, Woolner"
821,Darwin,Winnellie
822,Darwin,"Angurugu, Croker Island, Daly River, Darwin Mail Centre, Delissaville, Galiwinku, Goulbourn Island, Maningrida, Milingimbi, Minjilang, Nguiu, Oenpelli, Pularumpi, Ramingining, Umbakumba, Wadeye"
828,Darwin,Berrimah
829,Darwin,Pinelands
830,Darwin,"Archer, Driver, Farrar, Gray, Marlow Lagoon, Moulden, Palmerston, Woodroffe, Yarrawonga"
831,Darwin,Palmerston
832,Darwin,"Bakewell, Bellamack, Gunn, Mitchell, Rosebery"
835,Darwin,Howard Springs
836,Darwin,Humpty Doo
837,Darwin,Noonamah
838,Darwin,Berry Springs
840,Darwin,Dundee Beach
845,Darwin,Batchelor
846,Darwin,Adelaide River
847,Darwin,Pine Creek
850,Darwin,Katherine
851,Darwin,Katherine
852,Tennant Creek,"Daly Waters, Lajamanu, Larrimah, Maranboy, Mataranka, Ngukurr, Victoria River Downs"
853,Darwin,Raaf Base Tindal
854,Tennant Creek,Borroloola
860,Tennant Creek,Tennant Creek
861,Tennant Creek,Tennant Creek
862,Tennant Creek,Tennant Creek
870,Alice Springs,Alice Springs
871,Alice Springs,Alice Springs
872,Alice Springs,"Ali Curung, Areyonga, Barrow Creek, Finke, Haasts Bluff, Hermannsburg, Kaltukatjara, Kintore, Papunya, Santa Teresa, Ti Tree, Yuendumu, Yulara"
880,Darwin,"Nhulunbuy, Yirrkala"
881,Darwin,Nhulunbuy
885,Darwin,Alyangula
886,Darwin,Jabiru
909,Darwin,Darwin
