5000,Adelaide City / Suburbs,Adelaide
5001,Adelaide City / Suburbs,Adelaide
5005,Adelaide City / Suburbs,University Of Adelaide
5006,Adelaide City / Suburbs,North Adelaide
5007,Adelaide City / Suburbs,"Bowden, Brompton, Hindmarsh, Welland, West Hindmarsh"
5008,Adelaide City / Suburbs,"Croydon, Devon Park, Dudley Park, Renown Park, Ridleyton, West Croydon"
5009,Adelaide City / Suburbs,"Allenby Gardens, Beverley, Kilkenny"
5010,Adelaide City / Suburbs,"Angle Park, Ferryden Park, Regency Park"
5011,Adelaide City / Suburbs,"Woodville, Woodville Park, Woodville South"
5012,Adelaide City / Suburbs,"Athol Park, Mansfield Park, Woodville Gardens, Woodville North"
5013,Adelaide City / Suburbs,"Gillman, Ottoway, Pennington, Rosewater, Wingfield"
5014,Adelaide City / Suburbs,"Albert Park, Alberton, Cheltenham, Hendon, Queenstown, Royal Park"
5015,Adelaide City / Suburbs,"Birkenhead, Ethelton, Glanville, Port Adelaide"
5016,Adelaide City / Suburbs,"Largs Bay, Largs North, Peterhead"
5017,Adelaide City / Suburbs,"Osborne, Taperoo"
5018,Adelaide City / Suburbs,"North Haven, Outer Harbor"
5019,Adelaide City / Suburbs,"Exeter, Semaphore"
5020,Adelaide City / Suburbs,West Lakes Shore
5021,Adelaide City / Suburbs,West Lakes
5022,Adelaide City / Suburbs,"Grange, Henley Beach, Henley Beach South, Tennyson"
5023,Adelaide City / Suburbs,"Findon, Seaton"
5024,Adelaide City / Suburbs,"Fulham, Fulham Gardens, West Beach"
5025,Adelaide City / Suburbs,"Flinders Park, Kidman Park"
5031,Adelaide City / Suburbs,"Mile End, Thebarton, Torrensville"
5032,Adelaide City / Suburbs,"Brooklyn Park, Lockleys, Underdale"
5033,Adelaide City / Suburbs,"Cowandilla, Hilton, Marleston, Richmond, West Richmond"
5034,Adelaide City / Suburbs,"Clarence Park, Goodwood, Kings Park, Millswood, Wayville"
5035,Adelaide City / Suburbs,"Ashford, Black Forest, Everard Park, Forestville, Keswick"
5037,Adelaide City / Suburbs,"Glandore, Kurralta Park, Netley, North Plympton"
5038,Adelaide City / Suburbs,"Camden Park, Plympton, Plympton Park, South Plympton"
5039,Adelaide City / Suburbs,"Clarence Gardens, Edwardstown, Melrose Park"
5040,Adelaide City / Suburbs,Novar Gardens
5041,Adelaide City / Suburbs,"Colonel Light Gardens, Cumberland Park, Daw Park, Panorama, Westbourne Park"
5042,Adelaide City / Suburbs,"Bedford Park, Clovelly Park, Pasadena, St Marys"
5043,Adelaide City / Suburbs,"Ascot Park, Marion, Mitchell Park, Morphettville, Park Holme"
5044,Adelaide City / Suburbs,"Glengowrie, Somerton Park"
5045,Adelaide City / Suburbs,"Glenelg, Glenelg South"
5046,Adelaide City / Suburbs,"Oaklands Park, Warradale, Warradale North"
5047,Adelaide City / Suburbs,"Darlington, Seacombe Gardens, Seacombe Heights, Sturt"
5048,Adelaide City / Suburbs,"Brighton, Dover Gardens, Hove, South Brighton"
5049,Adelaide City / Suburbs,"Kingston Park, Marino, Seacliff, Seacliff Park, Seaview Downs"
5050,Adelaide City / Suburbs,"Bellevue Heights, Eden Hills"
5051,Adelaide City / Suburbs,"Blackwood, Coromandel Valley, Craigburn Farm, Hawthorndene"
5052,Adelaide City / Suburbs,"Belair, Glenalta"
5061,Adelaide City / Suburbs,"Hyde Park, Malvern, Unley"
5062,Adelaide City / Suburbs,"Brown Hill Creek, Clapham, Hawthorn, Kingswood, Lower Mitcham, Lynton, Mitcham, Netherby, Springfield, Torrens Park"
5063,Adelaide City / Suburbs,"Eastwood, Frewville, Fullarton, Highgate, Parkside"
5064,Adelaide City / Suburbs,"Glen Osmond, Glenunga, Mount Osmond, Myrtle Bank, St Georges, Urrbrae"
5065,Adelaide City / Suburbs,"Dulwich, Glenside, Linden Park, Toorak Gardens, Tusmore"
5066,Adelaide City / Suburbs,"Beaumont, Burnside, Erindale, Hazelwood Park, Stonyfell, Waterfall Gully, Wattle Park"
5067,Adelaide City / Suburbs,"Beulah Park, Kent Town, Norwood, Rose Park"
5068,Adelaide City / Suburbs,"Heathpool, Kensington, Kensington Gardens, Kensington Park, Leabrook, Marryatville, St Morris, Trinity Gardens"
5069,Adelaide City / Suburbs,"College Park, Evandale, Hackney, Maylands, St Peters, Stepney"
5070,Adelaide City / Suburbs,"Felixstow, Firle, Glynde, Joslin, Marden, Payneham, Royston Park"
5071,Adelaide City / Suburbs,Kent Town
5072,Adelaide City / Suburbs,"Auldana, Magill, Rosslyn Park, Skye, Teringie, Woodforde"
5073,Adelaide City / Suburbs,"Hectorville, Rostrevor, Tranmere, Tranmere North"
5074,Adelaide City / Suburbs,"Campbelltown, Newton"
5075,Adelaide City / Suburbs,"Dernancourt, Paradise"
5076,Adelaide City / Suburbs,"Athelstone, Castambul"
5081,Adelaide City / Suburbs,"Collinswood, Gilberton, Medindie, Vale Park, Walkerville"
5082,Adelaide City / Suburbs,"Fitzroy, Ovingham, Prospect, Thorngate"
5083,Adelaide City / Suburbs,"Broadview, Nailsworth, Sefton Park"
5084,Adelaide City / Suburbs,"Blair Athol, Kilburn"
5085,Adelaide City / Suburbs,"Clearview, Enfield, Northfield, Northgate"
5086,Adelaide City / Suburbs,"Gilles Plains, Greenacres, Hampstead Gardens, Hillcrest, Manningham, Oakden"
5087,Adelaide City / Suburbs,"Klemzig, Windsor Gardens"
5088,Adelaide City / Suburbs,Holden Hill
5089,Adelaide City / Suburbs,Highbury
5090,Adelaide City / Suburbs,Hope Valley
5091,Adelaide City / Suburbs,"Banksia Park, Tea Tree Gully, Vista"
5092,Adelaide City / Suburbs,"Modbury, Modbury North"
5093,Adelaide City / Suburbs,"Para Vista, Valley View"
5094,Adelaide City / Suburbs,"Cavan, Dry Creek, Gepps Cross"
5095,Adelaide City / Suburbs,"Mawson Lakes, Pooraka, The Levels"
5096,Adelaide City / Suburbs,"Gulfview Heights, Para Hills"
5097,Adelaide City / Suburbs,"Redwood Park, Ridgehaven, St Agnes"
5098,Adelaide City / Suburbs,"Ingle Farm, Walkley Heights"
5106,Adelaide City / Suburbs,"Parafield, Salisbury South"
5107,Adelaide City / Suburbs,"Green Fields, Parafield Gardens"
5108,Adelaide City / Suburbs,"Paralowie, Salisbury, Salisbury Downs, Salisbury North"
5109,Adelaide City / Suburbs,"Brahma Lodge, Salisbury East, Salisbury Heights, Salisbury Park, Salisbury Plain"
5110,Adelaide City / Suburbs,"Bolivar, Burton, Direk, Globe Derby Park, St Kilda, Waterloo Corner"
5111,Adelaide City / Suburbs,Edinburgh
5112,Adelaide City / Suburbs,"Hillbank, Elizabeth, Elizabeth East, Elizabeth Grove, Elizabeth South, Elizabeth Vale"
5113,Adelaide City / Suburbs,"Davoren Park, Elizabeth Downs, Elizabeth North, Elizabeth Park, Elizabeth West"
5114,Adelaide City / Suburbs,"Andrews Farm, Blakeview, Craigmore, One Tree Hill, Smithfield, Smithfield Plains, Uleybury"
5115,Adelaide City / Suburbs,"Kudla, Munno Para"
5116,Adelaide City / Suburbs,"Evanston, Hillier"
5117,Adelaide City / Suburbs,Angle Vale
5118,Adelaide City / Suburbs,"Buchfelde, Gawler, Gawler Belt, Hewett, Kalbeeba, Kingsford, Willaston"
5120,Adelaide City / Suburbs,"Buckland Park, Virginia"
5121,Adelaide City / Suburbs,"Macdonald Park, Penfield"
5125,Adelaide City / Suburbs,"Golden Grove, Greenwith"
5126,Adelaide City / Suburbs,"Fairview Park, Surrey Downs, Yatala Vale"
5127,Adelaide City / Suburbs,Wynn Vale
5131,Adelaide City / Suburbs,"Houghton, Lower Hermitage, Upper Hermitage"
5132,Adelaide City / Suburbs,Paracombe
5133,Adelaide City / Suburbs,Inglewood
5134,Adelaide City / Suburbs,"Cherryville, Montacute"
5136,Adelaide City / Suburbs,Norton Summit
5137,Adelaide City / Suburbs,Ashton
5138,Adelaide City / Suburbs,Basket Range
5139,Adelaide City / Suburbs,Forest Range
5140,Adelaide City / Suburbs,Greenhill
5141,Adelaide City / Suburbs,Summertown
5142,Adelaide City / Suburbs,Uraidla
5144,Adelaide City / Suburbs,Carey Gully
5150,Adelaide City / Suburbs,"Eagle On The Hill, Leawood Gardens"
5151,Adelaide City / Suburbs,Piccadilly
5152,Adelaide City / Suburbs,"Crafers, Stirling"
5153,Adelaide City / Suburbs,"Biggs Flat, Bradbury, Echunga, Flaxley, Heathfield, Ironbank, Longwood, Macclesfield, Mylor, Scott Creek"
5154,Adelaide City / Suburbs,Aldgate
5155,Adelaide City / Suburbs,"Bridgewater, Mount George"
5156,Adelaide City / Suburbs,Upper Sturt
5157,Outer Adelaide,"Ashbourne, Cherry Gardens, Clarendon, Coromandel East, Kangarilla"
5158,Adelaide City / Suburbs,"Hallett Cove, O Halloran Hill, Sheidow Park, Trott Park"
5159,Adelaide City / Suburbs,"Aberfoyle Park, Chandlers Hill, Flagstaff Hill, Happy Valley"
5160,Adelaide City / Suburbs,Lonsdale
5161,Adelaide City / Suburbs,Reynella
5162,Adelaide City / Suburbs,"Morphett Vale, Woodcroft"
5163,Adelaide City / Suburbs,"Hackham, Huntfield Heights, Onkaparinga Hills"
5164,Adelaide City / Suburbs,Christie Downs
5165,Adelaide City / Suburbs,Christies Beach
5166,Adelaide City / Suburbs,O Sullivan Beach
5167,Adelaide City / Suburbs,Port Noarlunga
5168,Adelaide City / Suburbs,"Noarlunga Centre, Noarlunga Downs, Old Noarlunga"
5169,Adelaide City / Suburbs,"Moana, Seaford, Seaford Heights, Seaford Meadows"
5170,Adelaide City / Suburbs,Maslin Beach
5171,Outer Adelaide,"Mclaren Flat, Mclaren Vale, Pedler Creek"
5172,Outer Adelaide,Willunga
5173,Outer Adelaide,"Aldinga, Aldinga Beach, Port Willunga"
5174,Outer Adelaide,"Sellicks Beach, Sellicks Hill"
5201,Outer Adelaide,"Meadows, Prospect Hill"
5202,Outer Adelaide,Myponga
5203,Outer Adelaide,Yankalilla
5204,Outer Adelaide,"Carrickalinga, Delamere, Normanville, Rapid Bay, Second Valley"
5210,Outer Adelaide,Mount Compass
5211,Outer Adelaide,"Encounter Bay, Hayborough, Inman Valley, Mccracken, Victor Harbor"
5212,Outer Adelaide,Port Elliot
5213,Outer Adelaide,Middleton
5214,Outer Adelaide,"Currency Creek, Goolwa"
5220,Outer Adelaide,Parndana
5221,Outer Adelaide,American River
5222,Outer Adelaide,Penneshaw
5223,Outer Adelaide,Kingscote
5231,Outer Adelaide,Kersbrook
5232,Outer Adelaide,Cudlee Creek
5233,Outer Adelaide,Gumeracha
5234,Outer Adelaide,Birdwood
5235,Outer Adelaide,"Eden Valley, Mount Pleasant, Springton"
5236,Outer Adelaide,Tungkillo
5237,Outer Adelaide,"Palmer, Sanderston"
5238,Outer Adelaide,"Bowhill, Mannum, Nildottie"
5240,Outer Adelaide,Lenswood
5241,Outer Adelaide,Lobethal
5242,Outer Adelaide,Balhannah
5243,Outer Adelaide,Oakbank
5244,Outer Adelaide,"Charleston, Mount Torrens, Woodside"
5245,Outer Adelaide,"Hahndorf, Verdun"
5250,Outer Adelaide,Littlehampton
5251,Outer Adelaide,"Bugle Ranges, Mount Barker, Wistow"
5252,Outer Adelaide,"Brukunga, Kanmantoo, Nairne"
5253,Murraylands,Murray Bridge
5254,Murraylands,"Callington, Monarto South, Mypolonga"
5255,Outer Adelaide,"Finniss, Langhorne Creek, Strathalbyn"
5256,Outer Adelaide,"Clayton, Milang"
5259,Murraylands,"Jervois, Narrung, Point Mcleay, Raukkan, Wellington"
5260,Murraylands,Tailem Bend
5261,South,"Cooke Plains, Coomandook, Culburra, Ki Ki, Yumali"
5262,South,"Binnum, Frances, Hynam, Kybybolite"
5263,South,Coonawarra
5264,Murraylands,Meningie
5265,South,Coonalpyn
5266,South,Tintinara
5267,South,Keith
5268,South,Bordertown
5269,South,Wolseley
5270,South,Mundulla
5271,South,"Naracoorte, Padthaway"
5272,South,"Greenways, Lucindale"
5273,South,Avenue Range
5275,South,Kingston Se
5276,South,Robe
5277,South,"Nangwarry, Penola, Tarpeena"
5278,South,Kalangadoo
5279,South,"Mount Burr, Trihi"
5280,South,"Beachport, Hatherleigh, Millicent, Rendelsham, Southend, Tantanoola"
5290,South,Mount Gambier
5291,South,"Allendale East, Carpenter Rocks, Donovans, Glencoe, Kongorong, Mil-lel, Moorak, O B Flat, Port Macdonnell, Yahl"
5301,Murraylands,"Geranium, Jabuk, Moorlands, Parrakie, Peake, Sherlock"
5302,Murraylands,Lameroo
5303,Murraylands,Parilla
5304,Murraylands,"Peebinga, Pinnaroo"
5306,Murraylands,Wynarka
5307,Murraylands,"Karoonda, Marama"
5308,Murraylands,Copeville
5309,Murraylands,Sandalwood
5310,Murraylands,Wanbi
5311,Murraylands,"Alawoona, Paruna, Taldra"
5312,Murraylands,Veitch
5320,Murraylands,Morgan
5321,Murraylands,Cadell
5322,Murraylands,Ramco
5330,Murraylands,"Lowbank, Waikerie"
5331,Murraylands,Kingston On Murray
5332,Murraylands,Moorook
5333,Murraylands,"Loxton, Loxton North, Taplan"
5340,Murraylands,Paringa
5341,Murraylands,"Cooltong, Renmark"
5342,Murraylands,Monash
5343,Murraylands,"Berri, Lyrup, Winkie"
5344,Murraylands,Glossop
5345,Murraylands,"Barmera, Loveday"
5346,Murraylands,Cobdogla
5350,Outer Adelaide,Sandy Creek
5351,Outer Adelaide,"Cockatoo Valley, Lyndoch, Williamstown"
5352,Outer Adelaide,"Bethany, Krondorf, Rowland Flat, Stone Well, Tanunda"
5353,Outer Adelaide,"Angaston, Black Hill, Cambrai, Keyneton, Moculta, Sedan"
5354,Murraylands,Swan Reach
5355,Outer Adelaide,"Marananga, Nuriootpa, Seppeltsfield, Stockwell"
5356,Outer Adelaide,Truro
5357,Murraylands,"Blanchetown, New Well"
5360,Outer Adelaide,"Greenock, Nain"
5371,Outer Adelaide,"Roseworthy, Shea-oak Log, Templers"
5372,Outer Adelaide,Freeling
5373,Outer Adelaide,"Hamilton, Kapunda"
5374,Outer Adelaide,"Bower, Eudunda, Sutherlands"
5381,Outer Adelaide,Robertstown
5400,Outer Adelaide,"Pinkerton Plains, Wasleys"
5401,Outer Adelaide,Hamley Bridge
5410,Outer Adelaide,"Linwood, Stockport"
5411,Outer Adelaide,Tarlee
5412,Outer Adelaide,Riverton
5413,Outer Adelaide,"Marrabel, Saddleworth"
5414,Outer Adelaide,Manoora
5415,Outer Adelaide,Mintaro
5416,Outer Adelaide,Farrell Flat
5417,Murraylands,"Booborowie, Burra"
5418,Northern,Mount Bryan
5419,Northern,Hallett
5420,Northern,Whyte Yarcowie
5421,Northern,Terowie
5422,Northern,Peterborough
5431,Northern,"Hammond, Morchard, Orroroo, Tarcowie"
5432,Northern,"Carrieton, Cradock"
5433,Northern,Quorn
5434,Northern,Hawker
5440,Northern,"Cockburn, Manna Hill, Olary, Yunta"
5451,Outer Adelaide,Auburn
5452,Outer Adelaide,Watervale
5453,Outer Adelaide,"Clare, Hoyleton, Penwortham"
5454,Murraylands,Spalding
5455,Outer Adelaide,Hilltown
5460,Outer Adelaide,Owen
5461,Outer Adelaide,Balaklava
5462,Outer Adelaide,Blyth
5464,Outer Adelaide,"Brinkworth, Koolunga"
5470,Murraylands,Yacka
5471,Murraylands,Gulnare
5472,Murraylands,Georgetown
5473,Murraylands,Gladstone
5480,Murraylands,"Appila, Laura"
5481,Murraylands,"Murray Town, Wirrabara"
5482,Murraylands,Booleroo Centre
5483,Northern,Melrose
5485,Northern,Wilmington
5490,Murraylands,Caltowie
5491,Murraylands,Jamestown
5493,Murraylands,Yongala
5495,Northern,"Mambray Creek, Port Flinders, Port Germein"
5501,Outer Adelaide,"Dublin, Lewiston, Lower Light, Middle Beach, Port Gawler, Two Wells, Windsor"
5502,Outer Adelaide,"Mallala, Reeves Plains"
5510,Outer Adelaide,Lochiel
5520,Outer Adelaide,Snowtown
5521,Outer Adelaide,Redhill
5522,Outer Adelaide,Port Broughton
5523,Murraylands,"Crystal Brook, Merriton"
5540,Murraylands,"Port Pirie, Port Pirie South, Port Pirie West, Risdon Park, Risdon Park South, Solomontown"
5550,Outer Adelaide,"Bowmans, Port Wakefield"
5552,Outer Adelaide,Paskeville
5554,Outer Adelaide,"Jericho, Jerusalem, Kadina, Matta Flat, New Town, Wallaroo Mines"
5555,Outer Adelaide,"Alford, Lake View, Mundoora"
5556,Outer Adelaide,Wallaroo
5558,Outer Adelaide,"Agery, Cross Roads, East Moonta, Hamley, Kooroona, Moonta, Moonta Bay, Moonta Mines, Nalyappa, North Moonta, North Yelta, Port Hughes, Yelta"
5560,Outer Adelaide,Bute
5570,Outer Adelaide,"Clinton, Port Clinton, Price"
5571,Outer Adelaide,"Ardrossan, Pine Point"
5572,Outer Adelaide,Arthurton
5573,Outer Adelaide,"Balgowan, Maitland, Point Pearce, Port Victoria, South Kilkerran, Weetulta"
5575,Outer Adelaide,"Brentwood, Corny Point, Marion Bay, Minlaton, Point Turton, Port Rickaby, Stenhouse Bay, Wool Bay"
5576,Outer Adelaide,Yorketown
5577,Outer Adelaide,Warooka
5580,Outer Adelaide,Curramulka
5581,Outer Adelaide,Port Vincent
5582,Outer Adelaide,Stansbury
5583,Outer Adelaide,"Coobowie, Edithburgh"
5600,Northern,"Iron Baron, Whyalla, Whyalla Playford"
5601,Northern,Iron Knob
5602,Eyre,Cowell
5603,Eyre,"Arno Bay, Wharminda"
5604,Eyre,Port Neill
5605,Eyre,"Butler, Tumby Bay"
5606,Eyre,Port Lincoln
5607,Eyre,"Coffin Bay, Coulta, Louth Bay, Murdinga, Ungarra, Venus Bay, Wangary, Wanilla, Warrachie, Warrow"
5608,Eyre,"Whyalla Norrie, Whyalla Stuart"
5609,Eyre,Whyalla Jenkins
5630,Eyre,Edillilie
5631,Eyre,Cummins
5632,Eyre,Yeelanna
5633,Eyre,Lock
5640,Eyre,Cleve
5641,Eyre,"Buckleboo, Kimba"
5642,Eyre,"Darke Peak, Kielpa, Rudall"
5650,Eyre,Warramboo
5651,Eyre,Kyancutta
5652,Eyre,Wudinna
5653,Eyre,Yaninee
5654,Eyre,Minnipa
5655,Eyre,Poochera
5660,Eyre,Cungena
5661,Eyre,Wirrulla
5670,Eyre,Elliston
5671,Eyre,"Calca, Port Kenny"
5680,Eyre,"Haslam, Smoky Bay, Streaky Bay"
5690,Eyre,"Ceduna, Coorabie, Penong, Thevenard, Yalata"
5700,Northern,"Port Augusta, Port Augusta West"
5710,Northern,"Arkaroola Village, Cook, Kingoonya, Nonning, Stirling North, Tarcoola"
5720,Northern,Woomera
5722,Northern,Andamooka
5723,Northern,Coober Pedy
5724,Northern,"Marla, Mintabie"
5725,Northern,"Olympic Dam, Roxby Downs"
5730,Northern,"Beltana, Blinman, Parachilna"
5731,Northern,"Leigh Creek, Lyndhurst"
5732,Northern,Copley
5733,Northern,Marree
5734,Northern,Oodnadatta
5942,Adelaide City / Suburbs,Regency Park
5950,Adelaide City / Suburbs,Port Adelaide
